2022-02-24 23:35:46 INFO     train: 1p: 173033
2022-02-24 23:35:46 INFO     train: 1ap: 23229
2022-02-24 23:35:46 INFO     train: 1dp: 12472
2022-02-24 23:35:48 INFO     valid: 1p: 20101
2022-02-24 23:35:48 INFO     valid: 1ap: 3000
2022-02-24 23:35:48 INFO     valid: 1dp: 1000
2022-02-24 23:35:49 INFO     valid: 1p: 20101
2022-02-24 23:35:49 INFO     valid: 1ap: 3000
2022-02-24 23:35:49 INFO     valid: 1dp: 1000
2022-02-24 23:35:49 INFO     valid: di: 1000
2022-02-24 23:35:50 INFO     train: 1dp: 12472
2022-02-24 23:35:50 INFO     train: 1ap: 23229
2022-02-24 23:35:50 INFO     attribute batch size: 41
2022-02-24 23:35:51 INFO     ---------------------------------------------------------------------------------------------
2022-02-24 23:35:51 INFO     Geo: geo.cqd-complexad
2022-02-24 23:35:51 INFO     Data Path: None
2022-02-24 23:35:51 INFO     #entity: 14506
2022-02-24 23:35:51 INFO     #relation: 704
2022-02-24 23:35:51 INFO     #attributes: 115
2022-02-24 23:35:51 INFO     batch size: 1024
2022-02-24 23:35:51 INFO     attribute batch size: 86
2022-02-24 23:35:51 INFO     Model Parameter Configuration:
2022-02-24 23:35:51 INFO     Parameter ent_embeddings.weight: torch.Size([14506, 2000]), require_grad = True
2022-02-24 23:35:51 INFO     Parameter rel_embeddings.weight: torch.Size([704, 2000]), require_grad = True
2022-02-24 23:35:51 INFO     Parameter attr_embeddings.weight: torch.Size([115, 2000]), require_grad = True
2022-02-24 23:35:51 INFO     Parameter b.weight: torch.Size([115, 2]), require_grad = True
2022-02-24 23:35:51 INFO     Parameter description_net.weight: torch.Size([100, 2000]), require_grad = True
2022-02-24 23:35:51 INFO     Parameter description_net.bias: torch.Size([100]), require_grad = True
2022-02-24 23:35:51 INFO     Parameter Number: 30850330
2022-02-24 23:35:51 INFO     Ramdomly Initializing cqd-complexad Model...
2022-02-24 23:36:55 INFO     Train 1ap MAE at epoch 1: 0.102463
2022-02-24 23:36:55 INFO     Train 1ap MSE at epoch 1: 0.029947
2022-02-24 23:36:55 INFO     Train 1ap RMSE at epoch 1: 0.173052
2022-02-24 23:36:55 INFO     Train 1ap num_queries at epoch 1: 23229.000000
2022-02-24 23:36:55 INFO     Train 1dp cos_sim at epoch 1: 0.914226
2022-02-24 23:36:55 INFO     Train 1dp num_queries at epoch 1: 12472.000000
2022-02-24 23:36:55 INFO     Train average MAE at epoch 1: 0.102463
2022-02-24 23:36:55 INFO     Train average MSE at epoch 1: 0.029947
2022-02-24 23:36:55 INFO     Train average RMSE at epoch 1: 0.173052
2022-02-24 23:37:04 INFO     Valid 1p MRR at epoch 1: 0.398596
2022-02-24 23:37:04 INFO     Valid 1p HITS1 at epoch 1: 0.298190
2022-02-24 23:37:04 INFO     Valid 1p HITS3 at epoch 1: 0.439323
2022-02-24 23:37:04 INFO     Valid 1p HITS10 at epoch 1: 0.606212
2022-02-24 23:37:04 INFO     Valid 1p num_queries at epoch 1: 20101.000000
2022-02-24 23:37:04 INFO     Valid 1ap MAE at epoch 1: 0.068739
2022-02-24 23:37:04 INFO     Valid 1ap MSE at epoch 1: 0.016847
2022-02-24 23:37:04 INFO     Valid 1ap RMSE at epoch 1: 0.129797
2022-02-24 23:37:04 INFO     Valid 1ap num_queries at epoch 1: 3000.000000
2022-02-24 23:37:04 INFO     Valid 1dp cos_sim at epoch 1: 0.905958
2022-02-24 23:37:04 INFO     Valid 1dp num_queries at epoch 1: 1000.000000
2022-02-24 23:37:04 INFO     Valid di MRR at epoch 1: 0.041683
2022-02-24 23:37:04 INFO     Valid di HITS1 at epoch 1: 0.010979
2022-02-24 23:37:04 INFO     Valid di HITS3 at epoch 1: 0.034928
2022-02-24 23:37:04 INFO     Valid di HITS10 at epoch 1: 0.089205
2022-02-24 23:37:04 INFO     Valid di num_queries at epoch 1: 1000.000000
2022-02-24 23:37:04 INFO     Valid average MRR at epoch 1: 0.220139
2022-02-24 23:37:04 INFO     Valid average HITS1 at epoch 1: 0.154584
2022-02-24 23:37:04 INFO     Valid average HITS3 at epoch 1: 0.237125
2022-02-24 23:37:04 INFO     Valid average HITS10 at epoch 1: 0.347708
2022-02-24 23:37:04 INFO     Valid average MAE at epoch 1: 0.068739
2022-02-24 23:37:04 INFO     Valid average MSE at epoch 1: 0.016847
2022-02-24 23:37:04 INFO     Valid average RMSE at epoch 1: 0.129797
2022-02-24 23:46:00 INFO     Train 1ap MAE at epoch 10: 0.030026
2022-02-24 23:46:00 INFO     Train 1ap MSE at epoch 10: 0.003466
2022-02-24 23:46:00 INFO     Train 1ap RMSE at epoch 10: 0.058875
2022-02-24 23:46:00 INFO     Train 1ap num_queries at epoch 10: 23229.000000
2022-02-24 23:46:00 INFO     Train 1dp cos_sim at epoch 10: 0.993667
2022-02-24 23:46:00 INFO     Train 1dp num_queries at epoch 10: 12472.000000
2022-02-24 23:46:00 INFO     Train average MAE at epoch 10: 0.030026
2022-02-24 23:46:00 INFO     Train average MSE at epoch 10: 0.003466
2022-02-24 23:46:00 INFO     Train average RMSE at epoch 10: 0.058875
2022-02-24 23:46:08 INFO     Valid 1p MRR at epoch 10: 0.431693
2022-02-24 23:46:08 INFO     Valid 1p HITS1 at epoch 10: 0.324682
2022-02-24 23:46:08 INFO     Valid 1p HITS3 at epoch 10: 0.478490
2022-02-24 23:46:08 INFO     Valid 1p HITS10 at epoch 10: 0.651250
2022-02-24 23:46:08 INFO     Valid 1p num_queries at epoch 10: 20101.000000
2022-02-24 23:46:08 INFO     Valid 1ap MAE at epoch 10: 0.050463
2022-02-24 23:46:08 INFO     Valid 1ap MSE at epoch 10: 0.010524
2022-02-24 23:46:08 INFO     Valid 1ap RMSE at epoch 10: 0.102585
2022-02-24 23:46:08 INFO     Valid 1ap num_queries at epoch 10: 3000.000000
2022-02-24 23:46:08 INFO     Valid 1dp cos_sim at epoch 10: 0.898670
2022-02-24 23:46:08 INFO     Valid 1dp num_queries at epoch 10: 1000.000000
2022-02-24 23:46:08 INFO     Valid di MRR at epoch 10: 0.056333
2022-02-24 23:46:08 INFO     Valid di HITS1 at epoch 10: 0.018131
2022-02-24 23:46:08 INFO     Valid di HITS3 at epoch 10: 0.048335
2022-02-24 23:46:08 INFO     Valid di HITS10 at epoch 10: 0.126067
2022-02-24 23:46:08 INFO     Valid di num_queries at epoch 10: 1000.000000
2022-02-24 23:46:08 INFO     Valid average MRR at epoch 10: 0.244013
2022-02-24 23:46:08 INFO     Valid average HITS1 at epoch 10: 0.171407
2022-02-24 23:46:08 INFO     Valid average HITS3 at epoch 10: 0.263413
2022-02-24 23:46:08 INFO     Valid average HITS10 at epoch 10: 0.388658
2022-02-24 23:46:08 INFO     Valid average MAE at epoch 10: 0.050463
2022-02-24 23:46:08 INFO     Valid average MSE at epoch 10: 0.010524
2022-02-24 23:46:08 INFO     Valid average RMSE at epoch 10: 0.102585
2022-02-24 23:56:04 INFO     Train 1ap MAE at epoch 20: 0.020564
2022-02-24 23:56:04 INFO     Train 1ap MSE at epoch 20: 0.001879
2022-02-24 23:56:04 INFO     Train 1ap RMSE at epoch 20: 0.043352
2022-02-24 23:56:04 INFO     Train 1ap num_queries at epoch 20: 23229.000000
2022-02-24 23:56:04 INFO     Train 1dp cos_sim at epoch 20: 0.995773
2022-02-24 23:56:04 INFO     Train 1dp num_queries at epoch 20: 12472.000000
2022-02-24 23:56:04 INFO     Train average MAE at epoch 20: 0.020564
2022-02-24 23:56:04 INFO     Train average MSE at epoch 20: 0.001879
2022-02-24 23:56:04 INFO     Train average RMSE at epoch 20: 0.043352
2022-02-24 23:56:12 INFO     Valid 1p MRR at epoch 20: 0.436268
2022-02-24 23:56:12 INFO     Valid 1p HITS1 at epoch 20: 0.328823
2022-02-24 23:56:12 INFO     Valid 1p HITS3 at epoch 20: 0.483581
2022-02-24 23:56:12 INFO     Valid 1p HITS10 at epoch 20: 0.654468
2022-02-24 23:56:12 INFO     Valid 1p num_queries at epoch 20: 20101.000000
2022-02-24 23:56:12 INFO     Valid 1ap MAE at epoch 20: 0.048844
2022-02-24 23:56:12 INFO     Valid 1ap MSE at epoch 20: 0.010883
2022-02-24 23:56:12 INFO     Valid 1ap RMSE at epoch 20: 0.104323
2022-02-24 23:56:12 INFO     Valid 1ap num_queries at epoch 20: 3000.000000
2022-02-24 23:56:12 INFO     Valid 1dp cos_sim at epoch 20: 0.896880
2022-02-24 23:56:12 INFO     Valid 1dp num_queries at epoch 20: 1000.000000
2022-02-24 23:56:12 INFO     Valid di MRR at epoch 20: 0.058829
2022-02-24 23:56:12 INFO     Valid di HITS1 at epoch 20: 0.020454
2022-02-24 23:56:12 INFO     Valid di HITS3 at epoch 20: 0.050327
2022-02-24 23:56:12 INFO     Valid di HITS10 at epoch 20: 0.126018
2022-02-24 23:56:12 INFO     Valid di num_queries at epoch 20: 1000.000000
2022-02-24 23:56:12 INFO     Valid average MRR at epoch 20: 0.247549
2022-02-24 23:56:12 INFO     Valid average HITS1 at epoch 20: 0.174638
2022-02-24 23:56:12 INFO     Valid average HITS3 at epoch 20: 0.266954
2022-02-24 23:56:12 INFO     Valid average HITS10 at epoch 20: 0.390243
2022-02-24 23:56:12 INFO     Valid average MAE at epoch 20: 0.048844
2022-02-24 23:56:12 INFO     Valid average MSE at epoch 20: 0.010883
2022-02-24 23:56:12 INFO     Valid average RMSE at epoch 20: 0.104323
2022-02-25 00:06:07 INFO     Train 1ap MAE at epoch 30: 0.016701
2022-02-25 00:06:07 INFO     Train 1ap MSE at epoch 30: 0.001284
2022-02-25 00:06:07 INFO     Train 1ap RMSE at epoch 30: 0.035834
2022-02-25 00:06:07 INFO     Train 1ap num_queries at epoch 30: 23229.000000
2022-02-25 00:06:08 INFO     Train 1dp cos_sim at epoch 30: 0.996412
2022-02-25 00:06:08 INFO     Train 1dp num_queries at epoch 30: 12472.000000
2022-02-25 00:06:08 INFO     Train average MAE at epoch 30: 0.016701
2022-02-25 00:06:08 INFO     Train average MSE at epoch 30: 0.001284
2022-02-25 00:06:08 INFO     Train average RMSE at epoch 30: 0.035834
2022-02-25 00:06:16 INFO     Valid 1p MRR at epoch 30: 0.438586
2022-02-25 00:06:16 INFO     Valid 1p HITS1 at epoch 30: 0.331471
2022-02-25 00:06:16 INFO     Valid 1p HITS3 at epoch 30: 0.485036
2022-02-25 00:06:16 INFO     Valid 1p HITS10 at epoch 30: 0.657909
2022-02-25 00:06:16 INFO     Valid 1p num_queries at epoch 30: 20101.000000
2022-02-25 00:06:16 INFO     Valid 1ap MAE at epoch 30: 0.047922
2022-02-25 00:06:16 INFO     Valid 1ap MSE at epoch 30: 0.010269
2022-02-25 00:06:16 INFO     Valid 1ap RMSE at epoch 30: 0.101336
2022-02-25 00:06:16 INFO     Valid 1ap num_queries at epoch 30: 3000.000000
2022-02-25 00:06:16 INFO     Valid 1dp cos_sim at epoch 30: 0.894401
2022-02-25 00:06:16 INFO     Valid 1dp num_queries at epoch 30: 1000.000000
2022-02-25 00:06:16 INFO     Valid di MRR at epoch 30: 0.057577
2022-02-25 00:06:16 INFO     Valid di HITS1 at epoch 30: 0.018386
2022-02-25 00:06:16 INFO     Valid di HITS3 at epoch 30: 0.051394
2022-02-25 00:06:16 INFO     Valid di HITS10 at epoch 30: 0.125111
2022-02-25 00:06:16 INFO     Valid di num_queries at epoch 30: 1000.000000
2022-02-25 00:06:16 INFO     Valid average MRR at epoch 30: 0.248081
2022-02-25 00:06:16 INFO     Valid average HITS1 at epoch 30: 0.174928
2022-02-25 00:06:16 INFO     Valid average HITS3 at epoch 30: 0.268215
2022-02-25 00:06:16 INFO     Valid average HITS10 at epoch 30: 0.391510
2022-02-25 00:06:16 INFO     Valid average MAE at epoch 30: 0.047922
2022-02-25 00:06:16 INFO     Valid average MSE at epoch 30: 0.010269
2022-02-25 00:06:16 INFO     Valid average RMSE at epoch 30: 0.101336
2022-02-25 00:16:12 INFO     Train 1ap MAE at epoch 40: 0.014283
2022-02-25 00:16:12 INFO     Train 1ap MSE at epoch 40: 0.000989
2022-02-25 00:16:12 INFO     Train 1ap RMSE at epoch 40: 0.031451
2022-02-25 00:16:12 INFO     Train 1ap num_queries at epoch 40: 23229.000000
2022-02-25 00:16:12 INFO     Train 1dp cos_sim at epoch 40: 0.997015
2022-02-25 00:16:12 INFO     Train 1dp num_queries at epoch 40: 12472.000000
2022-02-25 00:16:12 INFO     Train average MAE at epoch 40: 0.014283
2022-02-25 00:16:12 INFO     Train average MSE at epoch 40: 0.000989
2022-02-25 00:16:12 INFO     Train average RMSE at epoch 40: 0.031451
2022-02-25 00:16:20 INFO     Valid 1p MRR at epoch 40: 0.438933
2022-02-25 00:16:20 INFO     Valid 1p HITS1 at epoch 40: 0.331512
2022-02-25 00:16:20 INFO     Valid 1p HITS3 at epoch 40: 0.486995
2022-02-25 00:16:20 INFO     Valid 1p HITS10 at epoch 40: 0.656793
2022-02-25 00:16:20 INFO     Valid 1p num_queries at epoch 40: 20101.000000
2022-02-25 00:16:20 INFO     Valid 1ap MAE at epoch 40: 0.046955
2022-02-25 00:16:20 INFO     Valid 1ap MSE at epoch 40: 0.009836
2022-02-25 00:16:20 INFO     Valid 1ap RMSE at epoch 40: 0.099176
2022-02-25 00:16:20 INFO     Valid 1ap num_queries at epoch 40: 3000.000000
2022-02-25 00:16:20 INFO     Valid 1dp cos_sim at epoch 40: 0.893606
2022-02-25 00:16:20 INFO     Valid 1dp num_queries at epoch 40: 1000.000000
2022-02-25 00:16:20 INFO     Valid di MRR at epoch 40: 0.057703
2022-02-25 00:16:20 INFO     Valid di HITS1 at epoch 40: 0.018939
2022-02-25 00:16:20 INFO     Valid di HITS3 at epoch 40: 0.051176
2022-02-25 00:16:20 INFO     Valid di HITS10 at epoch 40: 0.125873
2022-02-25 00:16:20 INFO     Valid di num_queries at epoch 40: 1000.000000
2022-02-25 00:16:20 INFO     Valid average MRR at epoch 40: 0.248318
2022-02-25 00:16:20 INFO     Valid average HITS1 at epoch 40: 0.175226
2022-02-25 00:16:20 INFO     Valid average HITS3 at epoch 40: 0.269086
2022-02-25 00:16:20 INFO     Valid average HITS10 at epoch 40: 0.391333
2022-02-25 00:16:20 INFO     Valid average MAE at epoch 40: 0.046955
2022-02-25 00:16:20 INFO     Valid average MSE at epoch 40: 0.009836
2022-02-25 00:16:20 INFO     Valid average RMSE at epoch 40: 0.099176
2022-02-25 00:26:15 INFO     Train 1ap MAE at epoch 50: 0.013095
2022-02-25 00:26:15 INFO     Train 1ap MSE at epoch 50: 0.000912
2022-02-25 00:26:15 INFO     Train 1ap RMSE at epoch 50: 0.030195
2022-02-25 00:26:15 INFO     Train 1ap num_queries at epoch 50: 23229.000000
2022-02-25 00:26:15 INFO     Train 1dp cos_sim at epoch 50: 0.997354
2022-02-25 00:26:15 INFO     Train 1dp num_queries at epoch 50: 12472.000000
2022-02-25 00:26:15 INFO     Train average MAE at epoch 50: 0.013095
2022-02-25 00:26:15 INFO     Train average MSE at epoch 50: 0.000912
2022-02-25 00:26:15 INFO     Train average RMSE at epoch 50: 0.030195
2022-02-25 00:26:24 INFO     Valid 1p MRR at epoch 50: 0.438894
2022-02-25 00:26:24 INFO     Valid 1p HITS1 at epoch 50: 0.330950
2022-02-25 00:26:24 INFO     Valid 1p HITS3 at epoch 50: 0.487949
2022-02-25 00:26:24 INFO     Valid 1p HITS10 at epoch 50: 0.659217
2022-02-25 00:26:24 INFO     Valid 1p num_queries at epoch 50: 20101.000000
2022-02-25 00:26:24 INFO     Valid 1ap MAE at epoch 50: 0.046669
2022-02-25 00:26:24 INFO     Valid 1ap MSE at epoch 50: 0.009876
2022-02-25 00:26:24 INFO     Valid 1ap RMSE at epoch 50: 0.099380
2022-02-25 00:26:24 INFO     Valid 1ap num_queries at epoch 50: 3000.000000
2022-02-25 00:26:24 INFO     Valid 1dp cos_sim at epoch 50: 0.892468
2022-02-25 00:26:24 INFO     Valid 1dp num_queries at epoch 50: 1000.000000
2022-02-25 00:26:24 INFO     Valid di MRR at epoch 50: 0.056561
2022-02-25 00:26:24 INFO     Valid di HITS1 at epoch 50: 0.018456
2022-02-25 00:26:24 INFO     Valid di HITS3 at epoch 50: 0.050364
2022-02-25 00:26:24 INFO     Valid di HITS10 at epoch 50: 0.123658
2022-02-25 00:26:24 INFO     Valid di num_queries at epoch 50: 1000.000000
2022-02-25 00:26:24 INFO     Valid average MRR at epoch 50: 0.247727
2022-02-25 00:26:24 INFO     Valid average HITS1 at epoch 50: 0.174703
2022-02-25 00:26:24 INFO     Valid average HITS3 at epoch 50: 0.269156
2022-02-25 00:26:24 INFO     Valid average HITS10 at epoch 50: 0.391437
2022-02-25 00:26:24 INFO     Valid average MAE at epoch 50: 0.046669
2022-02-25 00:26:24 INFO     Valid average MSE at epoch 50: 0.009876
2022-02-25 00:26:24 INFO     Valid average RMSE at epoch 50: 0.099380
2022-02-25 00:36:19 INFO     Train 1ap MAE at epoch 60: 0.011895
2022-02-25 00:36:19 INFO     Train 1ap MSE at epoch 60: 0.000753
2022-02-25 00:36:19 INFO     Train 1ap RMSE at epoch 60: 0.027446
2022-02-25 00:36:19 INFO     Train 1ap num_queries at epoch 60: 23229.000000
2022-02-25 00:36:19 INFO     Train 1dp cos_sim at epoch 60: 0.997528
2022-02-25 00:36:19 INFO     Train 1dp num_queries at epoch 60: 12472.000000
2022-02-25 00:36:19 INFO     Train average MAE at epoch 60: 0.011895
2022-02-25 00:36:19 INFO     Train average MSE at epoch 60: 0.000753
2022-02-25 00:36:19 INFO     Train average RMSE at epoch 60: 0.027446
2022-02-25 00:36:27 INFO     Valid 1p MRR at epoch 60: 0.440138
2022-02-25 00:36:27 INFO     Valid 1p HITS1 at epoch 60: 0.332338
2022-02-25 00:36:27 INFO     Valid 1p HITS3 at epoch 60: 0.487256
2022-02-25 00:36:27 INFO     Valid 1p HITS10 at epoch 60: 0.659523
2022-02-25 00:36:27 INFO     Valid 1p num_queries at epoch 60: 20101.000000
2022-02-25 00:36:27 INFO     Valid 1ap MAE at epoch 60: 0.046405
2022-02-25 00:36:27 INFO     Valid 1ap MSE at epoch 60: 0.009771
2022-02-25 00:36:27 INFO     Valid 1ap RMSE at epoch 60: 0.098848
2022-02-25 00:36:27 INFO     Valid 1ap num_queries at epoch 60: 3000.000000
2022-02-25 00:36:27 INFO     Valid 1dp cos_sim at epoch 60: 0.890919
2022-02-25 00:36:27 INFO     Valid 1dp num_queries at epoch 60: 1000.000000
2022-02-25 00:36:27 INFO     Valid di MRR at epoch 60: 0.057793
2022-02-25 00:36:27 INFO     Valid di HITS1 at epoch 60: 0.019301
2022-02-25 00:36:27 INFO     Valid di HITS3 at epoch 60: 0.051690
2022-02-25 00:36:27 INFO     Valid di HITS10 at epoch 60: 0.125530
2022-02-25 00:36:27 INFO     Valid di num_queries at epoch 60: 1000.000000
2022-02-25 00:36:27 INFO     Valid average MRR at epoch 60: 0.248966
2022-02-25 00:36:27 INFO     Valid average HITS1 at epoch 60: 0.175820
2022-02-25 00:36:27 INFO     Valid average HITS3 at epoch 60: 0.269473
2022-02-25 00:36:27 INFO     Valid average HITS10 at epoch 60: 0.392527
2022-02-25 00:36:27 INFO     Valid average MAE at epoch 60: 0.046405
2022-02-25 00:36:27 INFO     Valid average MSE at epoch 60: 0.009771
2022-02-25 00:36:27 INFO     Valid average RMSE at epoch 60: 0.098848
2022-02-25 00:46:22 INFO     Train 1ap MAE at epoch 70: 0.011220
2022-02-25 00:46:22 INFO     Train 1ap MSE at epoch 70: 0.000701
2022-02-25 00:46:22 INFO     Train 1ap RMSE at epoch 70: 0.026469
2022-02-25 00:46:22 INFO     Train 1ap num_queries at epoch 70: 23229.000000
2022-02-25 00:46:22 INFO     Train 1dp cos_sim at epoch 70: 0.997697
2022-02-25 00:46:22 INFO     Train 1dp num_queries at epoch 70: 12472.000000
2022-02-25 00:46:22 INFO     Train average MAE at epoch 70: 0.011220
2022-02-25 00:46:22 INFO     Train average MSE at epoch 70: 0.000701
2022-02-25 00:46:22 INFO     Train average RMSE at epoch 70: 0.026469
2022-02-25 00:46:31 INFO     Valid 1p MRR at epoch 70: 0.440575
2022-02-25 00:46:31 INFO     Valid 1p HITS1 at epoch 70: 0.332870
2022-02-25 00:46:31 INFO     Valid 1p HITS3 at epoch 70: 0.487960
2022-02-25 00:46:31 INFO     Valid 1p HITS10 at epoch 70: 0.659719
2022-02-25 00:46:31 INFO     Valid 1p num_queries at epoch 70: 20101.000000
2022-02-25 00:46:31 INFO     Valid 1ap MAE at epoch 70: 0.045783
2022-02-25 00:46:31 INFO     Valid 1ap MSE at epoch 70: 0.009584
2022-02-25 00:46:31 INFO     Valid 1ap RMSE at epoch 70: 0.097896
2022-02-25 00:46:31 INFO     Valid 1ap num_queries at epoch 70: 3000.000000
2022-02-25 00:46:31 INFO     Valid 1dp cos_sim at epoch 70: 0.890115
2022-02-25 00:46:31 INFO     Valid 1dp num_queries at epoch 70: 1000.000000
2022-02-25 00:46:31 INFO     Valid di MRR at epoch 70: 0.056330
2022-02-25 00:46:31 INFO     Valid di HITS1 at epoch 70: 0.018288
2022-02-25 00:46:31 INFO     Valid di HITS3 at epoch 70: 0.050071
2022-02-25 00:46:31 INFO     Valid di HITS10 at epoch 70: 0.124543
2022-02-25 00:46:31 INFO     Valid di num_queries at epoch 70: 1000.000000
2022-02-25 00:46:31 INFO     Valid average MRR at epoch 70: 0.248453
2022-02-25 00:46:31 INFO     Valid average HITS1 at epoch 70: 0.175579
2022-02-25 00:46:31 INFO     Valid average HITS3 at epoch 70: 0.269015
2022-02-25 00:46:31 INFO     Valid average HITS10 at epoch 70: 0.392131
2022-02-25 00:46:31 INFO     Valid average MAE at epoch 70: 0.045783
2022-02-25 00:46:31 INFO     Valid average MSE at epoch 70: 0.009584
2022-02-25 00:46:31 INFO     Valid average RMSE at epoch 70: 0.097896
2022-02-25 00:56:26 INFO     Train 1ap MAE at epoch 80: 0.010746
2022-02-25 00:56:26 INFO     Train 1ap MSE at epoch 80: 0.000682
2022-02-25 00:56:26 INFO     Train 1ap RMSE at epoch 80: 0.026108
2022-02-25 00:56:26 INFO     Train 1ap num_queries at epoch 80: 23229.000000
2022-02-25 00:56:26 INFO     Train 1dp cos_sim at epoch 80: 0.997896
2022-02-25 00:56:26 INFO     Train 1dp num_queries at epoch 80: 12472.000000
2022-02-25 00:56:26 INFO     Train average MAE at epoch 80: 0.010746
2022-02-25 00:56:26 INFO     Train average MSE at epoch 80: 0.000682
2022-02-25 00:56:26 INFO     Train average RMSE at epoch 80: 0.026108
2022-02-25 00:56:34 INFO     Valid 1p MRR at epoch 80: 0.441348
2022-02-25 00:56:34 INFO     Valid 1p HITS1 at epoch 80: 0.334092
2022-02-25 00:56:34 INFO     Valid 1p HITS3 at epoch 80: 0.488018
2022-02-25 00:56:34 INFO     Valid 1p HITS10 at epoch 80: 0.659544
2022-02-25 00:56:34 INFO     Valid 1p num_queries at epoch 80: 20101.000000
2022-02-25 00:56:34 INFO     Valid 1ap MAE at epoch 80: 0.045582
2022-02-25 00:56:34 INFO     Valid 1ap MSE at epoch 80: 0.009714
2022-02-25 00:56:34 INFO     Valid 1ap RMSE at epoch 80: 0.098557
2022-02-25 00:56:34 INFO     Valid 1ap num_queries at epoch 80: 3000.000000
2022-02-25 00:56:34 INFO     Valid 1dp cos_sim at epoch 80: 0.889091
2022-02-25 00:56:34 INFO     Valid 1dp num_queries at epoch 80: 1000.000000
2022-02-25 00:56:34 INFO     Valid di MRR at epoch 80: 0.057810
2022-02-25 00:56:34 INFO     Valid di HITS1 at epoch 80: 0.020056
2022-02-25 00:56:34 INFO     Valid di HITS3 at epoch 80: 0.051074
2022-02-25 00:56:34 INFO     Valid di HITS10 at epoch 80: 0.127781
2022-02-25 00:56:34 INFO     Valid di num_queries at epoch 80: 1000.000000
2022-02-25 00:56:34 INFO     Valid average MRR at epoch 80: 0.249579
2022-02-25 00:56:34 INFO     Valid average HITS1 at epoch 80: 0.177074
2022-02-25 00:56:34 INFO     Valid average HITS3 at epoch 80: 0.269546
2022-02-25 00:56:34 INFO     Valid average HITS10 at epoch 80: 0.393662
2022-02-25 00:56:34 INFO     Valid average MAE at epoch 80: 0.045582
2022-02-25 00:56:34 INFO     Valid average MSE at epoch 80: 0.009714
2022-02-25 00:56:34 INFO     Valid average RMSE at epoch 80: 0.098557
2022-02-25 01:06:30 INFO     Train 1ap MAE at epoch 90: 0.010101
2022-02-25 01:06:30 INFO     Train 1ap MSE at epoch 90: 0.000614
2022-02-25 01:06:30 INFO     Train 1ap RMSE at epoch 90: 0.024786
2022-02-25 01:06:30 INFO     Train 1ap num_queries at epoch 90: 23229.000000
2022-02-25 01:06:30 INFO     Train 1dp cos_sim at epoch 90: 0.997943
2022-02-25 01:06:30 INFO     Train 1dp num_queries at epoch 90: 12472.000000
2022-02-25 01:06:30 INFO     Train average MAE at epoch 90: 0.010101
2022-02-25 01:06:30 INFO     Train average MSE at epoch 90: 0.000614
2022-02-25 01:06:30 INFO     Train average RMSE at epoch 90: 0.024786
2022-02-25 01:06:38 INFO     Valid 1p MRR at epoch 90: 0.441009
2022-02-25 01:06:38 INFO     Valid 1p HITS1 at epoch 90: 0.333165
2022-02-25 01:06:38 INFO     Valid 1p HITS3 at epoch 90: 0.488742
2022-02-25 01:06:38 INFO     Valid 1p HITS10 at epoch 90: 0.660289
2022-02-25 01:06:38 INFO     Valid 1p num_queries at epoch 90: 20101.000000
2022-02-25 01:06:38 INFO     Valid 1ap MAE at epoch 90: 0.045786
2022-02-25 01:06:38 INFO     Valid 1ap MSE at epoch 90: 0.009743
2022-02-25 01:06:38 INFO     Valid 1ap RMSE at epoch 90: 0.098709
2022-02-25 01:06:38 INFO     Valid 1ap num_queries at epoch 90: 3000.000000
2022-02-25 01:06:38 INFO     Valid 1dp cos_sim at epoch 90: 0.888548
2022-02-25 01:06:38 INFO     Valid 1dp num_queries at epoch 90: 1000.000000
2022-02-25 01:06:38 INFO     Valid di MRR at epoch 90: 0.058058
2022-02-25 01:06:38 INFO     Valid di HITS1 at epoch 90: 0.020218
2022-02-25 01:06:38 INFO     Valid di HITS3 at epoch 90: 0.052591
2022-02-25 01:06:38 INFO     Valid di HITS10 at epoch 90: 0.125292
2022-02-25 01:06:38 INFO     Valid di num_queries at epoch 90: 1000.000000
2022-02-25 01:06:38 INFO     Valid average MRR at epoch 90: 0.249533
2022-02-25 01:06:38 INFO     Valid average HITS1 at epoch 90: 0.176692
2022-02-25 01:06:38 INFO     Valid average HITS3 at epoch 90: 0.270667
2022-02-25 01:06:38 INFO     Valid average HITS10 at epoch 90: 0.392790
2022-02-25 01:06:38 INFO     Valid average MAE at epoch 90: 0.045786
2022-02-25 01:06:38 INFO     Valid average MSE at epoch 90: 0.009743
2022-02-25 01:06:38 INFO     Valid average RMSE at epoch 90: 0.098709
2022-02-25 01:16:31 INFO     Training finished!!
2022-02-25 01:16:33 INFO     valid: 1dp: 1000
2022-02-25 01:16:33 INFO     valid: 1p: 20101
2022-02-25 01:16:33 INFO     valid: di: 1000
2022-02-25 01:16:41 INFO     Valid 1p MRR at epoch 100: 0.441014
2022-02-25 01:16:41 INFO     Valid 1p HITS1 at epoch 100: 0.333519
2022-02-25 01:16:41 INFO     Valid 1p HITS3 at epoch 100: 0.487944
2022-02-25 01:16:41 INFO     Valid 1p HITS10 at epoch 100: 0.660724
2022-02-25 01:16:41 INFO     Valid 1p num_queries at epoch 100: 20101.000000
2022-02-25 01:16:41 INFO     Valid 1dp cos_sim at epoch 100: 0.887468
2022-02-25 01:16:41 INFO     Valid 1dp num_queries at epoch 100: 1000.000000
2022-02-25 01:16:41 INFO     Valid di MRR at epoch 100: 0.058513
2022-02-25 01:16:41 INFO     Valid di HITS1 at epoch 100: 0.021503
2022-02-25 01:16:41 INFO     Valid di HITS3 at epoch 100: 0.052557
2022-02-25 01:16:41 INFO     Valid di HITS10 at epoch 100: 0.125825
2022-02-25 01:16:41 INFO     Valid di num_queries at epoch 100: 1000.000000
2022-02-25 01:16:41 INFO     Valid average MRR at epoch 100: 0.249764
2022-02-25 01:16:41 INFO     Valid average HITS1 at epoch 100: 0.177511
2022-02-25 01:16:41 INFO     Valid average HITS3 at epoch 100: 0.270250
2022-02-25 01:16:41 INFO     Valid average HITS10 at epoch 100: 0.393275
2022-02-25 01:16:43 INFO     test: 1dp: 1000
2022-02-25 01:16:43 INFO     test: 1p: 22812
2022-02-25 01:16:43 INFO     test: di: 1000
2022-02-25 01:18:26 INFO     Test 1p MRR at epoch 100: 0.458885
2022-02-25 01:18:26 INFO     Test 1p HITS1 at epoch 100: 0.357233
2022-02-25 01:18:26 INFO     Test 1p HITS3 at epoch 100: 0.504325
2022-02-25 01:18:26 INFO     Test 1p HITS10 at epoch 100: 0.664344
2022-02-25 01:18:26 INFO     Test 1p num_queries at epoch 100: 22812.000000
2022-02-25 01:18:26 INFO     Test 1dp cos_sim at epoch 100: 0.883543
2022-02-25 01:18:26 INFO     Test 1dp num_queries at epoch 100: 1000.000000
2022-02-25 01:18:26 INFO     Test di MRR at epoch 100: 0.123143
2022-02-25 01:18:26 INFO     Test di HITS1 at epoch 100: 0.065479
2022-02-25 01:18:26 INFO     Test di HITS3 at epoch 100: 0.132324
2022-02-25 01:18:26 INFO     Test di HITS10 at epoch 100: 0.245559
2022-02-25 01:18:26 INFO     Test di num_queries at epoch 100: 1000.000000
2022-02-25 01:18:26 INFO     Test average MRR at epoch 100: 0.291014
2022-02-25 01:18:26 INFO     Test average HITS1 at epoch 100: 0.211356
2022-02-25 01:18:26 INFO     Test average HITS3 at epoch 100: 0.318324
2022-02-25 01:18:26 INFO     Test average HITS10 at epoch 100: 0.454952
2022-02-25 01:18:27 INFO     train: 1dp: 12472
2022-02-25 01:18:29 INFO     Train 1dp cos_sim at epoch 100: 0.998072
2022-02-25 01:18:29 INFO     Train 1dp num_queries at epoch 100: 12472.000000
