115
/architecture/architect/structure_count	0	2.0	79.0
/architecture/museum/established	1	1792.0	1983.33333333
/architecture/structure/construction_started	2	1446.0	1978.0
/architecture/structure/opened	3	1090.0	2003.0
/astronomy/orbital_relationship/mean_orbital_speed	4	1.022	225.0
/aviation/airport/number_of_runways	5	2.0	8.0
/award/award_category/date_discontinued	6	1955.0	2014.0
/award/award_category/date_established	7	1709.0	2013.0
/base/lewisandclark/places_eastward/from	8	1806.0	1806.58333333
/base/lewisandclark/places_westward/from	9	1803.0	1805.91666667
/base/lewisandclark/places_westward/to	10	1803.41666667	1804.66666667
/base/popstra/sww_base/heat	11	30.0	100.0
/base/popstra/sww_base/interest	12	40.0	100.0
/base/saturdaynightlive/snl_fiver_timer/number_of_appearances	13	5.0	14.0
/base/schemastaging/celestial_object_extra/escape_velocity	14	2380.0	617700.0
/base/schemastaging/location_extra/elevation_max	15	39.0	925.0
/base/schemastaging/location_extra/elevation_min	16	1.0	188.0
/base/schemastaging/tennis_player_extra/doubles_grand_slams	17	8.0	15.0
/base/schemastaging/tennis_player_extra/singles_grand_slams	18	6.0	17.0
/base/usnris/nris_listing/item_number	19	5000871.0	99000550.0
/base/usnris/nris_listing/significant_year	20	1726.0	1930.0
/biology/organism_classification/itis_tsn	21	18154.0	726821.0
/broadcast/tv_station/founded	22	1936.91666667	2006.41666667
/business/defunct_company/ceased_operations	23	1820.0	2013.33333333
/business/industry/naics_2007	24	21.0	541711.0
/chemistry/chemical_compound/average_molar_mass	25	18.01528	1355.37
/chemistry/chemical_compound/boiling_point	26	99.98	633.0
/chemistry/chemical_compound/density	27	0.847	1.6943
/chemistry/chemical_compound/melting_point	28	-49.0	1084.62
/chemistry/chemical_element/atomic_number	29	11.0	34.0
/chemistry/chemical_element/boiling_point	30	280.5	2862.0
/chemistry/chemical_element/covalent_radius	31	107.0	203.0
/chemistry/chemical_element/discovery_date	32	-8999.0	1817.0
/chemistry/chemical_element/electronegativity	33	0.82	2.55
/chemistry/chemical_element/ionization_energy	34	4.3407	10.4867
/chemistry/chemical_element/melting_point	35	44.2	1538.0
/chemistry/chemical_element/van_der_waals_radius	36	139.0	280.0
/computer/operating_system/release_date	37	1985.91666667	2008.75
/computer/programming_language/introduced	38	1987.0	1995.0
/computer/software/first_released	39	1971.91666667	2008.75
/computer/software/latest_release_date	40	1989.83333333	2014.91666667
/cvg/computer_videogame/release_date	41	2006.91666667	2006.91666667
/fictional_universe/fictional_character/height	42	1.77	2.1
/fictional_universe/fictional_character/weight	43	76.0	95.0
/film/film/initial_release_date	44	1927.08333333	2013.5
/food/food/energy	45	67.0	2783.0
/food/food/usda_equivalent	46	1009.0	20097.0
/geography/body_of_water/depth	47	6.096	10911.0
/geography/body_of_water/mean_depth	48	19.0	4280.0
/geography/body_of_water/surface_area	49	25744.0	165200000.0
/geography/body_of_water/volume	50	480.0	622000000.0
/geography/river/basin_area	51	12935.0	2981076.2
/geography/river/discharge	52	65.8	16792.0
/geography/river/length	53	26.0	3767.0
/geography/river/source_elevation	54	110.0	2345.0
/government/legislative_session/date_began	55	1774.75	2011.08333333
/government/legislative_session/date_ended	56	1774.83333333	2013.08333333
/government/us_president/presidency_number	57	1.0	44.0
/government/us_vice_president/vice_president_number	58	1.0	47.0
/law/invention/date_of_invention	59	1841.0	2006.5
/location/country/calling_code	60	1.0	998.0
/location/country/iso_numeric	61	4.0	894.0
/location/dated_location/date_dissolved	62	-194.0	2003.0
/location/dated_location/date_founded	63	-2999.0	2011.58333333
/location/fr_department/code_insee	64	2.0	972.0
/location/geocode/latitude	65	-90.0	77.613611
/location/geocode/longitude	66	-175.2	179.216667
/location/location/area	67	0.0040468564224	165250000.0
/location/location/area_land	68	121.4	243286.0
/location/location/gns_ufi	69	116270.0	9031110.0
/location/location/mean_elevation	70	4.0	223.0
/location/uk_statistical_location/ons_code	71	11.0	45.0
/medicine/icd_9_cm_classification/code	72	1.0	586.0
/music/album/release_date	73	1995.83333333	2007.08333333
/music/artist/active_end	74	1750.0	2015.25
/music/artist/active_start	75	1760.0	2010.0
/olympics/olympic_games/number_of_athletes	76	241.0	11099.0
/olympics/olympic_games/number_of_countries	77	12.0	204.0
/olympics/olympic_games/number_of_events	78	22.0	302.0
/organization/organization/date_founded	79	1088.0	2012.0
/people/deceased_person/date_of_burial	80	1616.33333333	2014.75
/people/deceased_person/date_of_cremation	81	1939.75	2014.75
/people/deceased_person/date_of_death	82	-322.0	2015.58333333
/people/person/date_of_birth	83	-383.0	1999.91666667
/people/person/height_meters	84	1.346	2.18
/people/person/weight_kg	85	44.0	147.0
/royalty/order_of_chivalry/date_founded	86	1694.0	1896.33333333
/royalty/royal_line/ruled_from	87	1003.0	1644.0
/royalty/royal_line/ruled_to	88	1485.0	1946.0
/sports/pro_athlete/career_end	89	1958.0	2003.0
/sports/pro_athlete/career_start	90	1958.0	2005.0
/sports/sports_league_draft/year	91	1995.0	2008.0
/sports/sports_team/founded	92	1739.0	2013.0
/tennis/tennis_player/year_turned_pro	93	1991.0	2003.0
/time/event/end_date	94	-200.0	2013.16666667
/time/event/start_date	95	-217.0	2013.16666667
/time/month/month_number	96	1.0	12.0
/time/month/number_of_days_in_month	97	28.0	31.0
/time/recurring_event/date_of_first_occurance	98	1932.66666667	2004.0
/time/time_zone/dst_offset_from_utc	99	-8.0	3.0
/time/time_zone/offset_from_uct	100	-9.0	8.0
/topic_server/population_number	101	1.0	3130438533.0
/tv/tv_program/air_date_of_final_episode	102	1959.0	10000.0
/tv/tv_program/air_date_of_first_episode	103	1950.0	2012.33333333
/tv/tv_program/episode_running_time	104	11.0	720.0
/tv/tv_program/number_of_episodes	105	1.0	16116.0
/tv/tv_program/number_of_seasons	106	1.0	91.0
/tv/tv_series_episode/air_date	107	1983.5	2011.83333333
/tv/tv_series_episode/episode_number	108	1.0	20.0
/tv/tv_series_episode/season_number	109	1.0	2011.0
/tv/tv_series_season/from	110	2013.41666667	2013.41666667
/tv/tv_series_season/number_of_episodes	111	15.0	15.0
/tv/tv_series_season/season_number	112	4.0	4.0
/visual_art/art_period_movement/began_approximately	113	1420.0	1920.0
/visual_art/art_period_movement/ended_approximately	114	1600.0	1940.0
