score,mrr,mae,mse,loss,rel_loss,attribute_loss,time_this_iter_s,should_checkpoint,done,timesteps_total,episodes_total,training_iteration,trial_id,experiment_id,date,timestamp,time_total_s,pid,hostname,node_ip,time_since_restore,timesteps_since_restore,iterations_since_restore
0.3761035772890778,0.3761035772890778,0,0,0.411851167678833,0.411851167678833,0.0,243.28020334243774,True,False,,,1,c4ed1_00014,eeebb4bca0774bc8be94599c467b6116,2022-01-10_12-40-54,1641814854,243.28020334243774,47783,desktop-debian,192.168.2.105,243.28020334243774,0,1
0.39654614851646064,0.39654614851646064,0,0,0.42191577951113385,0.42191577951113385,0.0,164.8623857498169,True,False,,,2,c4ed1_00014,eeebb4bca0774bc8be94599c467b6116,2022-01-10_12-43-39,1641815019,408.14258909225464,47783,desktop-debian,192.168.2.105,408.14258909225464,0,2
0.41200865013921695,0.41200865013921695,0,0,0.39373911420504254,0.39373911420504254,0.0,122.04948043823242,True,False,,,3,c4ed1_00014,eeebb4bca0774bc8be94599c467b6116,2022-01-10_12-45-41,1641815141,530.1920695304871,47783,desktop-debian,192.168.2.105,530.1920695304871,0,3
0.4199622476566893,0.4199622476566893,0,0,0.4269547760486603,0.4269547760486603,0.0,119.69964694976807,True,False,,,4,c4ed1_00014,eeebb4bca0774bc8be94599c467b6116,2022-01-10_12-47-41,1641815261,649.8917164802551,47783,desktop-debian,192.168.2.105,649.8917164802551,0,4
0.42670639926408477,0.42670639926408477,0,0,0.3415668110052745,0.3415668110052745,0.0,120.4189465045929,True,False,,,5,c4ed1_00014,eeebb4bca0774bc8be94599c467b6116,2022-01-10_12-49-41,1641815381,770.310662984848,47783,desktop-debian,192.168.2.105,770.310662984848,0,5
0.43023694806711593,0.43023694806711593,0,0,0.36265499393145245,0.36265499393145245,0.0,118.68739485740662,True,False,,,6,c4ed1_00014,eeebb4bca0774bc8be94599c467b6116,2022-01-10_12-51-40,1641815500,888.9980578422546,47783,desktop-debian,192.168.2.105,888.9980578422546,0,6
0.4428448639893026,0.4428448639893026,0,0,0.40804751714070636,0.40804751714070636,0.0,118.3661732673645,True,False,,,7,c4ed1_00014,eeebb4bca0774bc8be94599c467b6116,2022-01-10_12-53-38,1641815618,1007.3642311096191,47783,desktop-debian,192.168.2.105,1007.3642311096191,0,7
0.44856847663927224,0.44856847663927224,0,0,0.37376198172569275,0.37376198172569275,0.0,120.21038722991943,True,False,,,8,c4ed1_00014,eeebb4bca0774bc8be94599c467b6116,2022-01-10_12-55-39,1641815739,1127.5746183395386,47783,desktop-debian,192.168.2.105,1127.5746183395386,0,8
0.4520735782603955,0.4520735782603955,0,0,0.39913998047510785,0.39913998047510785,0.0,119.41836643218994,True,False,,,9,c4ed1_00014,eeebb4bca0774bc8be94599c467b6116,2022-01-10_12-57-38,1641815858,1246.9929847717285,47783,desktop-debian,192.168.2.105,1246.9929847717285,0,9
0.451562019375334,0.451562019375334,0,0,0.4034154812494914,0.4034154812494914,0.0,120.39765739440918,True,False,,,10,c4ed1_00014,eeebb4bca0774bc8be94599c467b6116,2022-01-10_12-59-38,1641815978,1367.3906421661377,47783,desktop-debian,192.168.2.105,1367.3906421661377,0,10
