score,mrr,mae,mse,loss,rel_loss,attribute_loss,time_this_iter_s,should_checkpoint,done,timesteps_total,episodes_total,training_iteration,trial_id,experiment_id,date,timestamp,time_total_s,pid,hostname,node_ip,time_since_restore,timesteps_since_restore,iterations_since_restore
0.15619153255434542,0.2589012898642213,0.10270975730987586,0.02831954404082515,0.1529859354098638,0.6055848995844523,0.10269716878732045,98.53596472740173,True,False,,,1,2cd5b_00023,37ce1ec1ce45456794f49595c73e3b4a,2022-01-11_01-16-09,1641860169,98.53596472740173,75464,desktop-debian,192.168.2.105,98.53596472740173,0,1
0.22011090745519368,0.3091971575367424,0.0890862500815487,0.02442530173308219,0.13964816679557165,0.594610184431076,0.08909683177868526,97.58069396018982,True,False,,,2,2cd5b_00023,37ce1ec1ce45456794f49595c73e3b4a,2022-01-11_01-17-46,1641860266,196.11665868759155,75464,desktop-debian,192.168.2.105,196.11665868759155,0,2
0.24520133114626186,0.3347487311994276,0.08954740005316576,0.025109994635456125,0.13903879125912985,0.5844237009684244,0.08955157548189163,97.43938207626343,True,False,,,3,2cd5b_00023,37ce1ec1ce45456794f49595c73e3b4a,2022-01-11_01-19-24,1641860364,293.556040763855,75464,desktop-debian,192.168.2.105,293.556040763855,0,3
0.2822535130598237,0.3673380608031949,0.08508454774337118,0.02309800489774582,0.1305773655573527,0.5399893224239349,0.08508714785178502,97.21310496330261,True,False,,,4,2cd5b_00023,37ce1ec1ce45456794f49595c73e3b4a,2022-01-11_01-21-01,1641860461,390.7691457271576,75464,desktop-debian,192.168.2.105,390.7691457271576,0,4
0.2966634551864447,0.3791465228522826,0.0824830676658379,0.02221074840255145,0.1278553456068039,0.5361854732036591,0.08248532811800639,96.86324906349182,True,False,,,5,2cd5b_00023,37ce1ec1ce45456794f49595c73e3b4a,2022-01-11_01-22-38,1641860558,487.6323947906494,75464,desktop-debian,192.168.2.105,487.6323947906494,0,5
0.29795504506487586,0.380900576924497,0.08294553185962117,0.022089913547093155,0.12870805958906809,0.5406905015309652,0.08293223132689793,97.61214423179626,True,False,,,6,2cd5b_00023,37ce1ec1ce45456794f49595c73e3b4a,2022-01-11_01-24-15,1641860655,585.2445390224457,75464,desktop-debian,192.168.2.105,585.2445390224457,0,6
0.3057131962233065,0.3892146559229392,0.08350145969963266,0.022990354849092863,0.12870757778485617,0.5355573197205862,0.08350205173095067,96.63405847549438,True,False,,,7,2cd5b_00023,37ce1ec1ce45456794f49595c73e3b4a,2022-01-11_01-25-52,1641860752,681.8785974979401,75464,desktop-debian,192.168.2.105,681.8785974979401,0,7
0.31668904641357437,0.39846642120223497,0.0817773747886606,0.02140119453885442,0.12285855412483215,0.49264418085416156,0.08177126447359721,95.89237689971924,True,False,,,8,2cd5b_00023,37ce1ec1ce45456794f49595c73e3b4a,2022-01-11_01-27-28,1641860848,777.7709743976593,75464,desktop-debian,192.168.2.105,777.7709743976593,0,8
0.32018752373870885,0.39994649957121514,0.07975897583250632,0.020974741617138738,0.1290628363688787,0.5729209780693054,0.07974526286125183,97.69258165359497,True,False,,,9,2cd5b_00023,37ce1ec1ce45456794f49595c73e3b4a,2022-01-11_01-29-06,1641860946,875.4635560512543,75464,desktop-debian,192.168.2.105,875.4635560512543,0,9
0.3194784934345337,0.39956117629080484,0.08008268285627113,0.021038722641525478,0.11972053597370784,0.4763405919075012,0.08009608834981918,98.15998578071594,True,False,,,10,2cd5b_00023,37ce1ec1ce45456794f49595c73e3b4a,2022-01-11_01-30-44,1641861044,973.6235418319702,75464,desktop-debian,192.168.2.105,973.6235418319702,0,10
