score,mrr,mae,mse,loss,rel_loss,attribute_loss,time_this_iter_s,should_checkpoint,done,timesteps_total,episodes_total,training_iteration,trial_id,experiment_id,date,timestamp,time_total_s,pid,hostname,node_ip,time_since_restore,timesteps_since_restore,iterations_since_restore
0.1935973762895202,0.2639754933200902,0.07037811703056998,0.020696074302657297,0.4733467698097229,0.8763043483098348,0.07038919379313786,394.5249855518341,True,False,,,1,2cd5b_00483,f531a8002a524d9e8adf5c96bd8096b3,2022-01-11_22-24-31,1641936271,394.5249855518341,2888420,desktop-debian,192.168.2.105,394.5249855518341,0,1
0.22730627784098317,0.2910634340098541,0.06375715616887095,0.018516794261603242,0.38261226812998456,0.7014693021774292,0.06375523159901302,389.2288098335266,True,False,,,2,2cd5b_00483,f531a8002a524d9e8adf5c96bd8096b3,2022-01-11_22-31-00,1641936660,783.7537953853607,2888420,desktop-debian,192.168.2.105,783.7537953853607,0,2
0.24737080276108905,0.30931233050358237,0.061941527742493306,0.017858922289087923,0.3547556698322296,0.6475582917531332,0.06195303921898206,388.7478995323181,True,False,,,3,2cd5b_00483,f531a8002a524d9e8adf5c96bd8096b3,2022-01-11_22-37-29,1641937049,1172.5016949176788,2888420,desktop-debian,192.168.2.105,1172.5016949176788,0,3
0.25268971276398833,0.314107909431893,0.061418196667904684,0.01783056728515132,0.32424552241961163,0.5870751341183981,0.06141590947906176,387.34441208839417,True,False,,,4,2cd5b_00483,f531a8002a524d9e8adf5c96bd8096b3,2022-01-11_22-43-56,1641937436,1559.846107006073,2888420,desktop-debian,192.168.2.105,1559.846107006073,0,4
0.2579802207638123,0.31845033646173115,0.0604701156979189,0.01740943119922853,0.3139415482680003,0.5674232244491577,0.06045987208684286,390.1988043785095,True,False,,,5,2cd5b_00483,f531a8002a524d9e8adf5c96bd8096b3,2022-01-11_22-50-26,1641937826,1950.0449113845825,2888420,desktop-debian,192.168.2.105,1950.0449113845825,0,5
0.26238791668234557,0.3228153873079608,0.060427470625615216,0.01754295891276494,0.2909681995709737,0.5215279757976532,0.06040841961900393,392.2080249786377,True,False,,,6,2cd5b_00483,f531a8002a524d9e8adf5c96bd8096b3,2022-01-11_22-56-58,1641938218,2342.25293636322,2888420,desktop-debian,192.168.2.105,2342.25293636322,0,6
0.26491174672067447,0.32505262923354844,0.06014088251287396,0.01729706015051098,0.3231199085712433,0.5861062606175741,0.06013354162375132,390.2561891078949,True,False,,,7,2cd5b_00483,f531a8002a524d9e8adf5c96bd8096b3,2022-01-11_23-03-29,1641938609,2732.509125471115,2888420,desktop-debian,192.168.2.105,2732.509125471115,0,7
0.26699639712476425,0.32660621887207536,0.05960982174731113,0.016994967092206666,0.2889655828475952,0.518304725488027,0.059626453866561256,389.93014645576477,True,False,,,8,2cd5b_00483,f531a8002a524d9e8adf5c96bd8096b3,2022-01-11_23-09-58,1641938998,3122.43927192688,2888420,desktop-debian,192.168.2.105,3122.43927192688,0,8
0.2679312373494131,0.32703879642793654,0.05910755907852346,0.016451075414631446,0.28201477726300556,0.5049166182676951,0.0591129424671332,388.25401401519775,True,False,,,9,2cd5b_00483,f531a8002a524d9e8adf5c96bd8096b3,2022-01-11_23-16-27,1641939387,3510.6932859420776,2888420,desktop-debian,192.168.2.105,3510.6932859420776,0,9
0.273679545985961,0.33261932559688023,0.05893977961091926,0.0164307392941762,0.2822563548882802,0.5055737594763438,0.05893894781668981,387.60647439956665,True,False,,,10,2cd5b_00483,f531a8002a524d9e8adf5c96bd8096b3,2022-01-11_23-22-54,1641939774,3898.2997603416443,2888420,desktop-debian,192.168.2.105,3898.2997603416443,0,10
