| Trial name            | status     | loc                   |   alpha | attr_loss   |   learning_rate |   rank |   iter |   total time (s) |    score |      mrr |       mae |       mse |      loss |   rel_loss |   attribute_loss |
| train_ray_66b20_00000 | TERMINATED | 192.168.178.68:391659 |     0.2 | mae         |            0.1  |   1024 |      1 |         1092.02  | 0.318485 | 0.419629 | 0.101144  | 0.0308666 | 0.644263  |   0.780046 |        0.101131  |
| train_ray_66b20_00001 | TERMINATED | 192.168.178.68:391652 |     0.3 | mae         |            0.1  |   1024 |      1 |          942.069 | 0.31251  | 0.418941 | 0.106431  | 0.0337306 | 0.56824   |   0.766165 |        0.106414  |
| train_ray_66b20_00002 | TERMINATED | 192.168.178.68:391653 |     0.4 | mae         |            0.1  |   1024 |      1 |         1100.6   | 0.316196 | 0.423235 | 0.107039  | 0.032934  | 0.510562  |   0.779591 |        0.10702   |
| train_ray_66b20_00003 | TERMINATED | 192.168.178.68:391660 |     0.5 | mae         |            0.1  |   1024 |      1 |         1117.72  | 0.313427 | 0.421674 | 0.108247  | 0.0342448 | 0.446518  |   0.784808 |        0.108228  |
| train_ray_66b20_00004 | TERMINATED | 192.168.178.68:391658 |     0.6 | mae         |            0.1  |   1024 |      1 |         1107.92  | 0.307813 | 0.4159   | 0.108087  | 0.0355699 | 0.378431  |   0.783972 |        0.10807   |
| train_ray_66b20_00005 | TERMINATED | 192.168.178.68:391650 |     0.7 | mae         |            0.1  |   1024 |      1 |         1142.85  | 0.309005 | 0.415786 | 0.106781  | 0.0339068 | 0.311428  |   0.788984 |        0.10676   |
| train_ray_66b20_00006 | TERMINATED | 192.168.178.68:391654 |     0.8 | mae         |            0.1  |   1024 |      1 |          944.806 | 0.299543 | 0.410939 | 0.111396  | 0.0365175 | 0.248877  |   0.798869 |        0.111379  |
| train_ray_66b20_00007 | TERMINATED | 192.168.178.68:391655 |     0.9 | mae         |            0.1  |   1024 |      1 |         1165.11  | 0.289001 | 0.401732 | 0.112731  | 0.0379639 | 0.18339   |   0.819493 |        0.112712  |
| train_ray_66b20_00008 | TERMINATED | 192.168.178.68:391651 |     0.2 | mse         |            0.1  |   1024 |      1 |          949.314 | 0.320648 | 0.426138 | 0.10549   | 0.0335883 | 0.628621  |   0.777379 |        0.0335863 |
| train_ray_66b20_00009 | TERMINATED | 192.168.178.68:391657 |     0.3 | mse         |            0.1  |   1024 |      1 |         1179.31  | 0.314128 | 0.42288  | 0.108752  | 0.0351492 | 0.547896  |   0.767645 |        0.0351472 |
| train_ray_66b20_00010 | TERMINATED | 192.168.178.68:391649 |     0.4 | mse         |            0.1  |   1024 |      1 |         1159.88  | 0.31989  | 0.423975 | 0.104085  | 0.0323132 | 0.467634  |   0.757846 |        0.0323156 |
| train_ray_66b20_00011 | TERMINATED | 192.168.178.68:391656 |     0.5 | mse         |            0.1  |   1024 |      1 |          972.887 | 0.323386 | 0.426251 | 0.102865  | 0.0312608 | 0.400086  |   0.768914 |        0.0312577 |
| train_ray_66b20_00012 | TERMINATED | 192.168.178.68:398037 |     0.6 | mse         |            0.1  |   1024 |      1 |         1167.09  | 0.323627 | 0.423075 | 0.099448  | 0.0308836 | 0.328361  |   0.774585 |        0.0308791 |
| train_ray_66b20_00013 | TERMINATED | 192.168.178.68:398714 |     0.7 | mse         |            0.1  |   1024 |      1 |          984.673 | 0.321252 | 0.422367 | 0.101115  | 0.0306031 | 0.254425  |   0.776677 |        0.0306021 |
| train_ray_66b20_00014 | TERMINATED | 192.168.178.68:399355 |     0.8 | mse         |            0.1  |   1024 |      1 |         1147.23  | 0.313596 | 0.41999  | 0.106394  | 0.0343404 | 0.183019  |   0.777746 |        0.0343375 |
| train_ray_66b20_00015 | TERMINATED | 192.168.178.68:400116 |     0.9 | mse         |            0.1  |   1024 |      1 |         1122.57  | 0.30421  | 0.414076 | 0.109867  | 0.0359657 | 0.110688  |   0.783177 |        0.0359668 |
| train_ray_66b20_00016 | TERMINATED | 192.168.178.68:400778 |     0.2 | mae         |            0.01 |   1024 |      1 |          984.034 | 0.395624 | 0.460105 | 0.064481  | 0.0173632 | 0.305609  |   0.365889 |        0.0644846 |
| train_ray_66b20_00017 | TERMINATED | 192.168.178.68:402035 |     0.3 | mae         |            0.01 |   1024 |      1 |         1136.51  | 0.394227 | 0.457771 | 0.0635446 | 0.0169878 | 0.276396  |   0.367617 |        0.0635472 |
| train_ray_66b20_00018 | TERMINATED | 192.168.178.68:402073 |     0.4 | mae         |            0.01 |   1024 |      1 |          975.766 | 0.395047 | 0.457881 | 0.0628342 | 0.0167554 | 0.246812  |   0.369462 |        0.0628363 |
| train_ray_66b20_00019 | TERMINATED | 192.168.178.68:402721 |     0.5 | mae         |            0.01 |   1024 |      1 |         1135.13  | 0.391977 | 0.454508 | 0.0625313 | 0.0166805 | 0.216666  |   0.370801 |        0.0625316 |
| train_ray_66b20_00020 | TERMINATED | 192.168.178.68:403397 |     0.6 | mae         |            0.01 |   1024 |      1 |         1134.69  | 0.384273 | 0.447002 | 0.0627289 | 0.0169036 | 0.186464  |   0.372066 |        0.0627287 |
| train_ray_66b20_00021 | TERMINATED | 192.168.178.68:404020 |     0.7 | mae         |            0.01 |   1024 |      1 |          987.67  | 0.377318 | 0.44005  | 0.0627317 | 0.0170382 | 0.155906  |   0.373316 |        0.0627306 |
| train_ray_66b20_00022 | TERMINATED | 192.168.178.68:404653 |     0.8 | mae         |            0.01 |   1024 |      1 |         1145.45  | 0.367797 | 0.430684 | 0.0628863 | 0.017188  | 0.125694  |   0.376935 |        0.0628837 |
| train_ray_66b20_00023 | TERMINATED | 192.168.178.68:405301 |     0.9 | mae         |            0.01 |   1024 |      1 |          992.091 | 0.349203 | 0.413126 | 0.0639233 | 0.0174957 | 0.0966512 |   0.391235 |        0.0639197 |
| train_ray_66b20_00024 | TERMINATED | 192.168.178.68:405952 |     0.2 | mse         |            0.01 |   1024 |      1 |         1120.95  | 0.390881 | 0.462899 | 0.0720172 | 0.0181134 | 0.29726   |   0.367045 |        0.0181178 |
| train_ray_66b20_00025 | TERMINATED | 192.168.178.68:406610 |     0.3 | mse         |            0.01 |   1024 |      1 |         1048.18  | 0.389226 | 0.460976 | 0.0717505 | 0.0178747 | 0.262219  |   0.366936 |        0.0178786 |
| train_ray_66b20_00026 | TERMINATED | 192.168.178.68:407256 |     0.4 | mse         |            0.01 |   1024 |      1 |         1074.66  | 0.388582 | 0.459743 | 0.071161  | 0.0176649 | 0.227829  |   0.367936 |        0.0176685 |
| train_ray_66b20_00027 | TERMINATED | 192.168.178.68:407894 |     0.5 | mse         |            0.01 |   1024 |      1 |         1068.64  | 0.388122 | 0.458719 | 0.0705971 | 0.0174812 | 0.193339  |   0.369193 |        0.0174843 |
| train_ray_66b20_00028 | TERMINATED | 192.168.178.68:408531 |     0.6 | mse         |            0.01 |   1024 |      1 |         1076.13  | 0.389318 | 0.459373 | 0.0700553 | 0.0173145 | 0.158692  |   0.370753 |        0.0173173 |
| train_ray_66b20_00029 | TERMINATED | 192.168.178.68:409229 |     0.7 | mse         |            0.01 |   1024 |      1 |          970.526 | 0.385934 | 0.455523 | 0.0695893 | 0.0171579 | 0.123796  |   0.372613 |        0.0171603 |
| train_ray_66b20_00030 | TERMINATED | 192.168.178.68:410007 |     0.8 | mse         |            0.01 |   1024 |      1 |          932.369 | 0.378957 | 0.448188 | 0.0692315 | 0.0170989 | 0.0885735 |   0.374463 |        0.017101  |
| train_ray_66b20_00031 | TERMINATED | 192.168.178.68:410668 |     0.9 | mse         |            0.01 |   1024 |      1 |          904.145 | 0.368864 | 0.437837 | 0.0689728 | 0.0171714 | 0.0533192 |   0.378633 |        0.0171733 |
| train_ray_66b20_00032 | TERMINATED | 192.168.178.68:411292 |     0.2 | mae         |            0.1  |    512 |      1 |          809.563 | 0.32762  | 0.421242 | 0.0936222 | 0.0276074 | 0.615578  |   0.746062 |        0.0936409 |
| train_ray_66b20_00033 | TERMINATED | 192.168.178.68:411925 |     0.3 | mae         |            0.1  |    512 |      1 |          818.51  | 0.328369 | 0.420065 | 0.0916963 | 0.0277046 | 0.552478  |   0.749946 |        0.0917201 |
| train_ray_66b20_00034 | TERMINATED | 192.168.178.68:412574 |     0.4 | mae         |            0.1  |    512 |      1 |          712.967 | 0.331195 | 0.420281 | 0.0890865 | 0.0253888 | 0.481505  |   0.743103 |        0.0891078 |
| train_ray_66b20_00035 | TERMINATED | 192.168.178.68:413230 |     0.5 | mae         |            0.1  |    512 |      1 |          694.929 | 0.331538 | 0.418564 | 0.0870258 | 0.0250361 | 0.418391  |   0.749736 |        0.0870459 |
| train_ray_66b20_00036 | TERMINATED | 192.168.178.68:413870 |     0.6 | mae         |            0.1  |    512 |      1 |          686.788 | 0.331645 | 0.41549  | 0.0838453 | 0.0233861 | 0.351091  |   0.751922 |        0.083871  |
| train_ray_66b20_00037 | TERMINATED | 192.168.178.68:414493 |     0.7 | mae         |            0.1  |    512 |      1 |          686.388 | 0.331124 | 0.419809 | 0.088685  | 0.0260874 | 0.283391  |   0.737642 |        0.0887115 |
| train_ray_66b20_00038 | TERMINATED | 192.168.178.68:415118 |     0.8 | mae         |            0.1  |    512 |      1 |          689.026 | 0.329465 | 0.414017 | 0.0845522 | 0.0245369 | 0.21521   |   0.73774  |        0.0845768 |
| train_ray_66b20_00039 | TERMINATED | 192.168.178.68:415758 |     0.9 | mae         |            0.1  |    512 |      1 |          660.926 | 0.324513 | 0.408309 | 0.0837951 | 0.0238241 | 0.148782  |   0.733422 |        0.0838225 |
| train_ray_66b20_00040 | TERMINATED | 192.168.178.68:416423 |     0.2 | mse         |            0.1  |    512 |      1 |          686.734 | 0.31468  | 0.42059  | 0.10591   | 0.0313425 | 0.59766   |   0.739235 |        0.0313566 |
| train_ray_66b20_00041 | TERMINATED | 192.168.178.68:417069 |     0.3 | mse         |            0.1  |    512 |      1 |          693.502 | 0.316984 | 0.417903 | 0.100918  | 0.0298692 | 0.529847  |   0.744118 |        0.0298832 |
| train_ray_66b20_00042 | TERMINATED | 192.168.178.68:417703 |     0.4 | mse         |            0.1  |    512 |      1 |          688.395 | 0.315891 | 0.418893 | 0.103003  | 0.0318446 | 0.457065  |   0.740537 |        0.0318581 |
| train_ray_66b20_00043 | TERMINATED | 192.168.178.68:418325 |     0.5 | mse         |            0.1  |    512 |      1 |          693.321 | 0.319069 | 0.417713 | 0.0986439 | 0.0295886 | 0.383793  |   0.737983 |        0.0296027 |
| train_ray_66b20_00044 | TERMINATED | 192.168.178.68:418968 |     0.6 | mse         |            0.1  |    512 |      1 |          667.278 | 0.326414 | 0.423083 | 0.0966698 | 0.0293212 | 0.31457   |   0.742422 |        0.0293347 |
| train_ray_66b20_00045 | TERMINATED | 192.168.178.68:419646 |     0.7 | mse         |            0.1  |    512 |      1 |          687.751 | 0.327649 | 0.423488 | 0.0958387 | 0.0288169 | 0.24237   |   0.740638 |        0.028827  |
| train_ray_66b20_00046 | TERMINATED | 192.168.178.68:420283 |     0.8 | mse         |            0.1  |    512 |      1 |          683.2   | 0.326551 | 0.42079  | 0.0942386 | 0.0276509 | 0.17107   |   0.744715 |        0.0276592 |
| train_ray_66b20_00047 | TERMINATED | 192.168.178.68:420904 |     0.9 | mse         |            0.1  |    512 |      1 |          687.039 | 0.326721 | 0.418988 | 0.0922678 | 0.0268503 | 0.0976089 |   0.734375 |        0.026857  |
| train_ray_66b20_00048 | TERMINATED | 192.168.178.68:421528 |     0.2 | mae         |            0.01 |    512 |      1 |          693.383 | 0.386868 | 0.453443 | 0.0665746 | 0.018094  | 0.299196  |   0.357344 |        0.066601  |
| train_ray_66b20_00049 | TERMINATED | 192.168.178.68:422172 |     0.3 | mae         |            0.01 |    512 |      1 |          670.239 | 0.380454 | 0.445756 | 0.065302  | 0.0174257 | 0.27081   |   0.358874 |        0.0653278 |
| train_ray_66b20_00050 | TERMINATED | 192.168.178.68:422853 |     0.4 | mae         |            0.01 |    512 |      1 |          688.924 | 0.375202 | 0.439776 | 0.0645738 | 0.0169905 | 0.242954  |   0.361857 |        0.0645982 |
| train_ray_66b20_00051 | TERMINATED | 192.168.178.68:423477 |     0.5 | mae         |            0.01 |    512 |      1 |          687.886 | 0.371205 | 0.435837 | 0.0646316 | 0.0169295 | 0.21509   |   0.365525 |        0.0646546 |
| train_ray_66b20_00052 | TERMINATED | 192.168.178.68:424114 |     0.6 | mae         |            0.01 |    512 |      1 |          694.748 | 0.364784 | 0.42908  | 0.0642954 | 0.016986  | 0.186547  |   0.36989  |        0.0643178 |
| train_ray_66b20_00053 | TERMINATED | 192.168.178.68:424734 |     0.7 | mae         |            0.01 |    512 |      1 |          690.961 | 0.358648 | 0.423219 | 0.0645707 | 0.0173179 | 0.157724  |   0.375029 |        0.0645929 |
| train_ray_66b20_00054 | TERMINATED | 192.168.178.68:425369 |     0.8 | mae         |            0.01 |    512 |      1 |          665.485 | 0.346978 | 0.411628 | 0.0646492 | 0.017526  | 0.128627  |   0.384452 |        0.0646707 |
| train_ray_66b20_00055 | TERMINATED | 192.168.178.68:426047 |     0.9 | mae         |            0.01 |    512 |      1 |          689.072 | 0.31995  | 0.385284 | 0.0653339 | 0.0177239 | 0.100213  |   0.413932 |        0.0653558 |
| train_ray_66b20_00056 | TERMINATED | 192.168.178.68:426674 |     0.2 | mse         |            0.01 |    512 |      1 |          693.074 | 0.37624  | 0.452996 | 0.0767559 | 0.0196211 | 0.291102  |   0.358968 |        0.0196363 |
| train_ray_66b20_00057 | TERMINATED | 192.168.178.68:427310 |     0.3 | mse         |            0.01 |    512 |      1 |          694.71  | 0.374513 | 0.450342 | 0.0758289 | 0.0192239 | 0.258207  |   0.360622 |        0.0192386 |
| train_ray_66b20_00058 | TERMINATED | 192.168.178.68:427944 |     0.4 | mse         |            0.01 |    512 |      1 |          695.635 | 0.371529 | 0.446774 | 0.0752445 | 0.0188883 | 0.225434  |   0.363121 |        0.0189026 |
| train_ray_66b20_00059 | TERMINATED | 192.168.178.68:428579 |     0.5 | mse         |            0.01 |    512 |      1 |          669.642 | 0.367668 | 0.442388 | 0.0747201 | 0.0185413 | 0.19197   |   0.365385 |        0.0185552 |
| train_ray_66b20_00060 | TERMINATED | 192.168.178.68:429281 |     0.6 | mse         |            0.01 |    512 |      1 |          661.458 | 0.36744  | 0.441739 | 0.0742993 | 0.0183186 | 0.158416  |   0.368541 |        0.0183324 |
| train_ray_66b20_00061 | TERMINATED | 192.168.178.68:429959 |     0.7 | mse         |            0.01 |    512 |      1 |          645.866 | 0.363403 | 0.437345 | 0.0739417 | 0.0181438 | 0.124605  |   0.372984 |        0.0181573 |
| train_ray_66b20_00062 | TERMINATED | 192.168.178.68:431174 |     0.8 | mse         |            0.01 |    512 |      1 |          652.567 | 0.360804 | 0.4342   | 0.0733968 | 0.0180421 | 0.089933  |   0.377444 |        0.0180553 |
| train_ray_66b20_00063 | TERMINATED | 192.168.178.68:431223 |     0.9 | mse         |            0.01 |    512 |      1 |          650.36  | 0.351833 | 0.424909 | 0.0730758 | 0.0181194 | 0.05494   |   0.386211 |        0.0181321 |
| train_ray_66b20_00064 | TERMINATED | 192.168.178.68:431862 |     0.2 | mae         |            0.1  |    256 |      1 |          559.599 | 0.322498 | 0.411082 | 0.0885838 | 0.0263262 | 0.652394  |   0.793347 |        0.0885803 |
| train_ray_66b20_00065 | TERMINATED | 192.168.178.68:432589 |     0.3 | mae         |            0.1  |    256 |      1 |          510.598 | 0.322632 | 0.409997 | 0.0873653 | 0.0248667 | 0.57033   |   0.777318 |        0.0873591 |
| train_ray_66b20_00066 | TERMINATED | 192.168.178.68:433231 |     0.4 | mae         |            0.1  |    256 |      1 |          501.743 | 0.333582 | 0.415294 | 0.0817126 | 0.0227831 | 0.490663  |   0.763296 |        0.0817127 |
| train_ray_66b20_00067 | TERMINATED | 192.168.178.68:433868 |     0.5 | mae         |            0.1  |    256 |      1 |          520.505 | 0.339452 | 0.419239 | 0.0797875 | 0.0223358 | 0.421668  |   0.763546 |        0.0797902 |
| train_ray_66b20_00068 | TERMINATED | 192.168.178.68:435098 |     0.6 | mae         |            0.1  |    256 |      1 |          493.644 | 0.341729 | 0.418601 | 0.0768718 | 0.0214261 | 0.351841  |   0.764285 |        0.0768778 |
| train_ray_66b20_00069 | TERMINATED | 192.168.178.68:435137 |     0.7 | mae         |            0.1  |    256 |      1 |          527.985 | 0.341191 | 0.416064 | 0.0748731 | 0.0207297 | 0.280296  |   0.759601 |        0.0748791 |
| train_ray_66b20_00070 | TERMINATED | 192.168.178.68:435821 |     0.8 | mae         |            0.1  |    256 |      1 |          497.441 | 0.336639 | 0.410612 | 0.073973  | 0.0204045 | 0.210302  |   0.755583 |        0.0739816 |
| train_ray_66b20_00071 | TERMINATED | 192.168.178.68:436454 |     0.9 | mae         |            0.1  |    256 |      1 |          504.751 | 0.332922 | 0.409509 | 0.0765869 | 0.0206482 | 0.143068  |   0.741309 |        0.0765967 |
| train_ray_66b20_00072 | TERMINATED | 192.168.178.68:437721 |     0.2 | mse         |            0.1  |    256 |      1 |          516.097 | 0.3154   | 0.418615 | 0.103215  | 0.030767  | 0.628763  |   0.778261 |        0.0307712 |
| train_ray_66b20_00073 | TERMINATED | 192.168.178.68:437757 |     0.3 | mse         |            0.1  |    256 |      1 |          496.77  | 0.314776 | 0.412592 | 0.0978162 | 0.0287433 | 0.548933  |   0.771873 |        0.0287413 |
| train_ray_66b20_00074 | TERMINATED | 192.168.178.68:438405 |     0.4 | mse         |            0.1  |    256 |      1 |          514.952 | 0.314817 | 0.412857 | 0.0980398 | 0.028946  | 0.480024  |   0.780742 |        0.0289472 |
| train_ray_66b20_00075 | TERMINATED | 192.168.178.68:439084 |     0.5 | mse         |            0.1  |    256 |      1 |          497.058 | 0.316987 | 0.410194 | 0.0932067 | 0.026435  | 0.405292  |   0.784144 |        0.0264391 |
| train_ray_66b20_00076 | TERMINATED | 192.168.178.68:439718 |     0.6 | mse         |            0.1  |    256 |      1 |          500.31  | 0.322103 | 0.413324 | 0.091221  | 0.0252407 | 0.327881  |   0.781834 |        0.0252458 |
| train_ray_66b20_00077 | TERMINATED | 192.168.178.68:440372 |     0.7 | mse         |            0.1  |    256 |      1 |          520.105 | 0.324052 | 0.413224 | 0.089172  | 0.0245613 | 0.250079  |   0.776278 |        0.0245654 |
| train_ray_66b20_00078 | TERMINATED | 192.168.178.68:441015 |     0.8 | mse         |            0.1  |    256 |      1 |          486.422 | 0.325859 | 0.413529 | 0.0876698 | 0.023974  | 0.174556  |   0.776863 |        0.0239799 |
| train_ray_66b20_00079 | TERMINATED | 192.168.178.68:441656 |     0.9 | mse         |            0.1  |    256 |      1 |          525.433 | 0.320738 | 0.406957 | 0.0862187 | 0.0229112 | 0.0975119 |   0.768913 |        0.0229118 |
| train_ray_66b20_00080 | TERMINATED | 192.168.178.68:442322 |     0.2 | mae         |            0.01 |    256 |      1 |          498.976 | 0.345534 | 0.414908 | 0.0693741 | 0.0190714 | 0.324942  |   0.388834 |        0.0693748 |
| train_ray_66b20_00081 | TERMINATED | 192.168.178.68:442965 |     0.3 | mae         |            0.01 |    256 |      1 |          502.148 | 0.344893 | 0.412353 | 0.0674595 | 0.0183823 | 0.292846  |   0.38944  |        0.0674618 |
| train_ray_66b20_00082 | TERMINATED | 192.168.178.68:443589 |     0.4 | mae         |            0.01 |    256 |      1 |          515.293 | 0.343628 | 0.410003 | 0.0663754 | 0.0179636 | 0.261062  |   0.39085  |        0.0663793 |
| train_ray_66b20_00083 | TERMINATED | 192.168.178.68:444231 |     0.5 | mae         |            0.01 |    256 |      1 |          497.191 | 0.336869 | 0.402639 | 0.0657695 | 0.0177155 | 0.230264  |   0.394754 |        0.0657746 |
| train_ray_66b20_00084 | TERMINATED | 192.168.178.68:444866 |     0.6 | mae         |            0.01 |    256 |      1 |          524.035 | 0.330603 | 0.395989 | 0.0653863 | 0.0176056 | 0.199903  |   0.401669 |        0.0653922 |
| train_ray_66b20_00085 | TERMINATED | 192.168.178.68:445551 |     0.7 | mae         |            0.01 |    256 |      1 |          497.401 | 0.319804 | 0.384967 | 0.0651626 | 0.0175945 | 0.169871  |   0.414179 |        0.0651682 |
| train_ray_66b20_00086 | TERMINATED | 192.168.178.68:446175 |     0.8 | mae         |            0.01 |    256 |      1 |          498.685 | 0.302299 | 0.367637 | 0.0653379 | 0.0176814 | 0.13951   |   0.436176 |        0.0653436 |
| train_ray_66b20_00087 | TERMINATED | 192.168.178.68:446808 |     0.9 | mae         |            0.01 |    256 |      1 |          521.42  | 0.275418 | 0.341265 | 0.0658464 | 0.017967  | 0.108945  |   0.496791 |        0.0658509 |
| train_ray_66b20_00088 | TERMINATED | 192.168.178.68:447440 |     0.2 | mse         |            0.01 |    256 |      1 |          495.914 | 0.341682 | 0.420498 | 0.0788156 | 0.0196574 | 0.315294  |   0.389202 |        0.0196597 |
| train_ray_66b20_00089 | TERMINATED | 192.168.178.68:448069 |     0.3 | mse         |            0.01 |    256 |      1 |          528.496 | 0.33873  | 0.416872 | 0.0781413 | 0.0193534 | 0.278313  |   0.389294 |        0.0193565 |
| train_ray_66b20_00090 | TERMINATED | 192.168.178.68:448728 |     0.4 | mse         |            0.01 |    256 |      1 |          497.214 | 0.336473 | 0.414451 | 0.0779782 | 0.0192741 | 0.241463  |   0.389586 |        0.0192775 |
| train_ray_66b20_00091 | TERMINATED | 192.168.178.68:449369 |     0.5 | mse         |            0.01 |    256 |      1 |          498.878 | 0.334152 | 0.411806 | 0.0776541 | 0.0191811 | 0.205334  |   0.391484 |        0.0191844 |
| train_ray_66b20_00092 | TERMINATED | 192.168.178.68:450004 |     0.6 | mse         |            0.01 |    256 |      1 |          516.051 | 0.328622 | 0.405975 | 0.077353  | 0.0191106 | 0.169442  |   0.394934 |        0.0191138 |
| train_ray_66b20_00093 | TERMINATED | 192.168.178.68:450642 |     0.7 | mse         |            0.01 |    256 |      1 |          492.992 | 0.326176 | 0.402876 | 0.0767    | 0.0189736 | 0.133512  |   0.40076  |        0.0189769 |
| train_ray_66b20_00094 | TERMINATED | 192.168.178.68:451313 |     0.8 | mse         |            0.01 |    256 |      1 |          513.717 | 0.319895 | 0.395516 | 0.0756214 | 0.0187062 | 0.097161  |   0.410967 |        0.0187096 |
| train_ray_66b20_00095 | TERMINATED | 192.168.178.68:451964 |     0.9 | mse         |            0.01 |    256 |      1 |          483.442 | 0.308077 | 0.382727 | 0.0746499 | 0.0183302 | 0.059922  |   0.434218 |        0.0183335 |
| train_ray_66b20_00096 | TERMINATED | 192.168.178.68:452601 |     0.2 | mae         |            0.1  |    128 |      1 |          448.809 | 0.315469 | 0.400711 | 0.0852411 | 0.0243021 | 0.564029  |   0.683729 |        0.0852266 |
| train_ray_66b20_00097 | TERMINATED | 192.168.178.68:453849 |     0.3 | mae         |            0.1  |    128 |      1 |          465.908 | 0.322655 | 0.405019 | 0.0823649 | 0.0236588 | 0.504881  |   0.685967 |        0.082345  |
| train_ray_66b20_00098 | TERMINATED | 192.168.178.68:453887 |     0.4 | mae         |            0.1  |    128 |      1 |          450.852 | 0.330388 | 0.408219 | 0.0778312 | 0.0225133 | 0.432422  |   0.668829 |        0.077811  |
| train_ray_66b20_00099 | TERMINATED | 192.168.178.68:454530 |     0.5 | mae         |            0.1  |    128 |      1 |          466.476 | 0.32839  | 0.406531 | 0.0781411 | 0.0223214 | 0.364814  |   0.651503 |        0.0781253 |
| train_ray_66b20_00100 | TERMINATED | 192.168.178.68:455167 |     0.6 | mae         |            0.1  |    128 |      1 |          443.725 | 0.334253 | 0.407356 | 0.0731036 | 0.0203057 | 0.303724  |   0.649673 |        0.0730917 |
| train_ray_66b20_00101 | TERMINATED | 192.168.178.68:455793 |     0.7 | mae         |            0.1  |    128 |      1 |          447.428 | 0.335997 | 0.407994 | 0.0719977 | 0.0195174 | 0.242978  |   0.641964 |        0.0719836 |
| train_ray_66b20_00102 | TERMINATED | 192.168.178.68:456423 |     0.8 | mae         |            0.1  |    128 |      1 |          454.611 | 0.334268 | 0.405968 | 0.0716997 | 0.0193667 | 0.185434  |   0.640408 |        0.0716903 |
| train_ray_66b20_00103 | TERMINATED | 192.168.178.68:457060 |     0.9 | mae         |            0.1  |    128 |      1 |          443.569 | 0.326526 | 0.397228 | 0.0707021 | 0.0191589 | 0.12777   |   0.641465 |        0.0706931 |
| train_ray_66b20_00104 | TERMINATED | 192.168.178.68:457708 |     0.2 | mse         |            0.1  |    128 |      1 |          457.207 | 0.306125 | 0.403013 | 0.0968874 | 0.0272698 | 0.56569   |   0.700297 |        0.0272629 |
| train_ray_66b20_00105 | TERMINATED | 192.168.178.68:458345 |     0.3 | mse         |            0.1  |    128 |      1 |          444.22  | 0.310747 | 0.405937 | 0.0951902 | 0.0263136 | 0.488517  |   0.686608 |        0.0263069 |
| train_ray_66b20_00106 | TERMINATED | 192.168.178.68:458969 |     0.4 | mse         |            0.1  |    128 |      1 |          444.842 | 0.311762 | 0.405312 | 0.0935507 | 0.025244  | 0.419496  |   0.682334 |        0.0252387 |
| train_ray_66b20_00107 | TERMINATED | 192.168.178.68:459608 |     0.5 | mse         |            0.1  |    128 |      1 |          450.515 | 0.313114 | 0.404035 | 0.0909209 | 0.0247262 | 0.355881  |   0.68704  |        0.0247226 |
| train_ray_66b20_00108 | TERMINATED | 192.168.178.68:460229 |     0.6 | mse         |            0.1  |    128 |      1 |          446.969 | 0.307232 | 0.39738  | 0.0901486 | 0.0243398 | 0.286268  |   0.679163 |        0.0243381 |
| train_ray_66b20_00109 | TERMINATED | 192.168.178.68:460871 |     0.7 | mse         |            0.1  |    128 |      1 |          459.301 | 0.309134 | 0.39879  | 0.0896565 | 0.0242608 | 0.217713  |   0.669106 |        0.0242584 |
| train_ray_66b20_00110 | TERMINATED | 192.168.178.68:461521 |     0.8 | mse         |            0.1  |    128 |      1 |          443.569 | 0.307496 | 0.396458 | 0.0889623 | 0.0237928 | 0.151374  |   0.661705 |        0.0237908 |
| train_ray_66b20_00111 | TERMINATED | 192.168.178.68:462158 |     0.9 | mse         |            0.1  |    128 |      1 |          452.159 | 0.305736 | 0.393714 | 0.0879782 | 0.0234242 | 0.0882791 |   0.671996 |        0.0234216 |
| train_ray_66b20_00112 | TERMINATED | 192.168.178.68:463383 |     0.2 | mae         |            0.01 |    128 |      1 |          452.92  | 0.315511 | 0.386125 | 0.0706131 | 0.0201686 | 0.319648  |   0.381908 |        0.0706081 |
| train_ray_66b20_00113 | TERMINATED | 192.168.178.68:463403 |     0.3 | mae         |            0.01 |    128 |      1 |          452.07  | 0.311571 | 0.38125  | 0.0696797 | 0.019453  | 0.291416  |   0.386449 |        0.0696722 |
| train_ray_66b20_00114 | TERMINATED | 192.168.178.68:464049 |     0.4 | mae         |            0.01 |    128 |      1 |          466.698 | 0.306752 | 0.375682 | 0.0689301 | 0.0191396 | 0.262225  |   0.391094 |        0.0689216 |
| train_ray_66b20_00115 | TERMINATED | 192.168.178.68:464692 |     0.5 | mae         |            0.01 |    128 |      1 |          446.885 | 0.298641 | 0.367122 | 0.0684809 | 0.019093  | 0.232602  |   0.396732 |        0.068472  |
| train_ray_66b20_00116 | TERMINATED | 192.168.178.68:465315 |     0.6 | mae         |            0.01 |    128 |      1 |          445.567 | 0.29269  | 0.36099  | 0.0682999 | 0.0191373 | 0.202849  |   0.404685 |        0.0682911 |
| train_ray_66b20_00117 | TERMINATED | 192.168.178.68:466524 |     0.7 | mae         |            0.01 |    128 |      1 |          457.868 | 0.281882 | 0.350143 | 0.0682608 | 0.0192035 | 0.173146  |   0.417897 |        0.0682522 |
| train_ray_66b20_00118 | TERMINATED | 192.168.178.68:466560 |     0.8 | mae         |            0.01 |    128 |      1 |          439.498 | 0.268677 | 0.337153 | 0.0684761 | 0.0193971 | 0.143862  |   0.445437 |        0.0684676 |
| train_ray_66b20_00119 | TERMINATED | 192.168.178.68:467195 |     0.9 | mae         |            0.01 |    128 |      1 |          460.878 | 0.226641 | 0.295712 | 0.0690711 | 0.0195548 | 0.115095  |   0.529403 |        0.0690613 |
| train_ray_66b20_00120 | TERMINATED | 192.168.178.68:467831 |     0.2 | mse         |            0.01 |    128 |      1 |          443.621 | 0.301171 | 0.383987 | 0.0828163 | 0.0210715 | 0.309921  |   0.382134 |        0.0210687 |
| train_ray_66b20_00121 | TERMINATED | 192.168.178.68:468464 |     0.3 | mse         |            0.01 |    128 |      1 |          450.958 | 0.301823 | 0.383697 | 0.0818747 | 0.0206347 | 0.275241  |   0.38436  |        0.0206311 |
| train_ray_66b20_00122 | TERMINATED | 192.168.178.68:469101 |     0.4 | mse         |            0.01 |    128 |      1 |          460.139 | 0.299901 | 0.381173 | 0.0812725 | 0.0203745 | 0.24073   |   0.387636 |        0.0203705 |
| train_ray_66b20_00123 | TERMINATED | 192.168.178.68:469724 |     0.5 | mse         |            0.01 |    128 |      1 |          447.92  | 0.297581 | 0.378315 | 0.0807336 | 0.0201981 | 0.206043  |   0.391892 |        0.0201939 |
| train_ray_66b20_00124 | TERMINATED | 192.168.178.68:470366 |     0.6 | mse         |            0.01 |    128 |      1 |          446.83  | 0.293314 | 0.373658 | 0.0803445 | 0.0200561 | 0.17089   |   0.397147 |        0.0200521 |
| train_ray_66b20_00125 | TERMINATED | 192.168.178.68:471015 |     0.7 | mse         |            0.01 |    128 |      1 |          419.365 | 0.285509 | 0.365466 | 0.0799575 | 0.0199407 | 0.135288  |   0.404439 |        0.0199371 |
| train_ray_66b20_00126 | TERMINATED | 192.168.178.68:471640 |     0.8 | mse         |            0.01 |    128 |      1 |          406.456 | 0.278199 | 0.357586 | 0.0793868 | 0.0198895 | 0.0989979 |   0.415444 |        0.0198863 |
| train_ray_66b20_00127 | TERMINATED | 192.168.178.68:472283 |     0.9 | mse         |            0.01 |    128 |      1 |          398.035 | 0.260076 | 0.338907 | 0.0788304 | 0.0200694 | 0.0625372 |   0.444772 |        0.0200666 |
