| Trial name            | status     | loc                  |   learning_rate |   p_norm |   rank |   iter |   total time (s) |    score |      mrr |   mae |   mse |     loss |   rel_loss |   attribute_loss |
| train_ray_4c72d_00000 | TERMINATED | 192.168.2.105:81335  |            0.1  |        1 |    128 |     10 |          1113.09 | 0.39415  | 0.39415  |     0 |     0 | 0.596873 |   0.596873 |                0 |
| train_ray_4c72d_00001 | TERMINATED | 192.168.2.105:81333  |            0.01 |        1 |    128 |     10 |          1098.37 | 0.380676 | 0.380676 |     0 |     0 | 0.440603 |   0.440603 |                0 |
| train_ray_4c72d_00002 | TERMINATED | 192.168.2.105:81337  |            0.1  |        2 |    128 |     10 |          1084.21 | 0.399076 | 0.399076 |     0 |     0 | 0.390382 |   0.390382 |                0 |
| train_ray_4c72d_00003 | TERMINATED | 192.168.2.105:81341  |            0.01 |        2 |    128 |     10 |          1091.93 | 0.267641 | 0.267641 |     0 |     0 | 0.745096 |   0.745096 |                0 |
| train_ray_4c72d_00004 | TERMINATED | 192.168.2.105:81342  |            0.1  |        1 |    256 |     10 |          1218.37 | 0.389959 | 0.389959 |     0 |     0 | 0.841324 |   0.841324 |                0 |
| train_ray_4c72d_00005 | TERMINATED | 192.168.2.105:81339  |            0.01 |        1 |    256 |     10 |          1158.17 | 0.424488 | 0.424488 |     0 |     0 | 0.443841 |   0.443841 |                0 |
| train_ray_4c72d_00006 | TERMINATED | 192.168.2.105:81336  |            0.1  |        2 |    256 |     10 |          1240.86 | 0.429224 | 0.429224 |     0 |     0 | 0.402439 |   0.402439 |                0 |
| train_ray_4c72d_00007 | TERMINATED | 192.168.2.105:81340  |            0.01 |        2 |    256 |     10 |          1267.88 | 0.286902 | 0.286902 |     0 |     0 | 0.668058 |   0.668058 |                0 |
| train_ray_4c72d_00008 | TERMINATED | 192.168.2.105:81332  |            0.1  |        1 |    512 |     10 |          1449.3  | 0.37547  | 0.37547  |     0 |     0 | 1.15451  |   1.15451  |                0 |
| train_ray_4c72d_00009 | TERMINATED | 192.168.2.105:81331  |            0.01 |        1 |    512 |     10 |          1450.77 | 0.394466 | 0.394466 |     0 |     0 | 0.473844 |   0.473844 |                0 |
| train_ray_4c72d_00010 | TERMINATED | 192.168.2.105:81338  |            0.1  |        2 |    512 |     10 |          1456.8  | 0.446204 | 0.446204 |     0 |     0 | 0.374477 |   0.374477 |                0 |
| train_ray_4c72d_00011 | TERMINATED | 192.168.2.105:81334  |            0.01 |        2 |    512 |     10 |          1458.32 | 0.304726 | 0.304726 |     0 |     0 | 0.567457 |   0.567457 |                0 |
| train_ray_4c72d_00012 | TERMINATED | 192.168.2.105:121101 |            0.1  |        1 |   1024 |     10 |          1722.31 | 0.370887 | 0.370887 |     0 |     0 | 2.19773  |   2.19773  |                0 |
| train_ray_4c72d_00013 | TERMINATED | 192.168.2.105:121523 |            0.01 |        1 |   1024 |     10 |          1721.17 | 0.357204 | 0.357204 |     0 |     0 | 0.540843 |   0.540843 |                0 |
| train_ray_4c72d_00014 | TERMINATED | 192.168.2.105:121954 |            0.1  |        2 |   1024 |     10 |          1647.37 | 0.458582 | 0.458582 |     0 |     0 | 0.363872 |   0.363872 |                0 |
| train_ray_4c72d_00015 | TERMINATED | 192.168.2.105:122775 |            0.01 |        2 |   1024 |     10 |          1648.22 | 0.331719 | 0.331719 |     0 |     0 | 0.468006 |   0.468006 |                0 |
