2022-01-29 14:41:54 INFO     train: 1p: 173033
2022-01-29 14:41:54 INFO     train: 2p: 173033
2022-01-29 14:41:54 INFO     train: 3p: 173033
2022-01-29 14:41:54 INFO     train: 2i: 173033
2022-01-29 14:41:54 INFO     train: 3i: 173033
2022-01-29 14:41:54 INFO     train: 1ap: 23229
2022-01-29 14:41:59 INFO     valid: 1p: 20101
2022-01-29 14:41:59 INFO     valid: 2p: 5000
2022-01-29 14:41:59 INFO     valid: 3p: 5000
2022-01-29 14:41:59 INFO     valid: 2i: 5000
2022-01-29 14:41:59 INFO     valid: 3i: 5000
2022-01-29 14:41:59 INFO     valid: 1ap: 3000
2022-01-29 14:42:00 INFO     valid: 1p: 20101
2022-01-29 14:42:00 INFO     valid: 1ap: 3000
2022-01-29 14:42:00 INFO     valid: 2ap: 100
2022-01-29 14:42:01 INFO     attribute batch size: 14
2022-01-29 14:42:01 INFO     ---------------------------------------------------------------------------------------------
2022-01-29 14:42:01 INFO     Geo: geo.q2b
2022-01-29 14:42:01 INFO     Data Path: None
2022-01-29 14:42:01 INFO     #entity: 14506
2022-01-29 14:42:01 INFO     #relation: 704
2022-01-29 14:42:01 INFO     #attributes: 115
2022-01-29 14:42:01 INFO     batch size: 512
2022-01-29 14:42:01 INFO     attribute batch size: 38
2022-01-29 14:42:01 INFO     Model Parameter Configuration:
2022-01-29 14:42:01 INFO     Parameter ent_embeddings.weight: torch.Size([14506, 400]), require_grad = True
2022-01-29 14:42:01 INFO     Parameter rel_embeddings.weight: torch.Size([704, 400]), require_grad = True
2022-01-29 14:42:01 INFO     Parameter attr_embeddings.weight: torch.Size([115, 400]), require_grad = True
2022-01-29 14:42:01 INFO     Parameter offset_embedding.weight: torch.Size([704, 400]), require_grad = True
2022-01-29 14:42:01 INFO     Parameter offset_attr_embeddings.weight: torch.Size([115, 400]), require_grad = True
2022-01-29 14:42:01 INFO     Parameter center_net.layer1.weight: torch.Size([400, 400]), require_grad = True
2022-01-29 14:42:01 INFO     Parameter center_net.layer1.bias: torch.Size([400]), require_grad = True
2022-01-29 14:42:01 INFO     Parameter center_net.layer2.weight: torch.Size([400, 400]), require_grad = True
2022-01-29 14:42:01 INFO     Parameter center_net.layer2.bias: torch.Size([400]), require_grad = True
2022-01-29 14:42:01 INFO     Parameter offset_net.layer1.weight: torch.Size([400, 400]), require_grad = True
2022-01-29 14:42:01 INFO     Parameter offset_net.layer1.bias: torch.Size([400]), require_grad = True
2022-01-29 14:42:01 INFO     Parameter offset_net.layer2.weight: torch.Size([400, 400]), require_grad = True
2022-01-29 14:42:01 INFO     Parameter offset_net.layer2.bias: torch.Size([400]), require_grad = True
2022-01-29 14:42:01 INFO     Parameter Number: 7099200
2022-01-29 14:42:01 INFO     Ramdomly Initializing q2b Model...
2022-01-29 14:44:18 INFO     Valid 1p MRR at epoch 1: 0.247836
2022-01-29 14:44:18 INFO     Valid 1p HITS1 at epoch 1: 0.168734
2022-01-29 14:44:18 INFO     Valid 1p HITS3 at epoch 1: 0.263753
2022-01-29 14:44:18 INFO     Valid 1p HITS10 at epoch 1: 0.408794
2022-01-29 14:44:18 INFO     Valid 1p num_queries at epoch 1: 20101.000000
2022-01-29 14:44:18 INFO     Valid 1ap MAE at epoch 1: 0.085340
2022-01-29 14:44:18 INFO     Valid 1ap MSE at epoch 1: 0.020974
2022-01-29 14:44:18 INFO     Valid 1ap RMSE at epoch 1: 0.144823
2022-01-29 14:44:18 INFO     Valid 1ap num_queries at epoch 1: 3000.000000
2022-01-29 14:44:18 INFO     Valid 2ap MAE at epoch 1: 0.071555
2022-01-29 14:44:18 INFO     Valid 2ap MSE at epoch 1: 0.011899
2022-01-29 14:44:18 INFO     Valid 2ap RMSE at epoch 1: 0.109084
2022-01-29 14:44:18 INFO     Valid 2ap num_queries at epoch 1: 100.000000
2022-01-29 14:44:18 INFO     Valid average MRR at epoch 1: 0.247836
2022-01-29 14:44:18 INFO     Valid average HITS1 at epoch 1: 0.168734
2022-01-29 14:44:18 INFO     Valid average HITS3 at epoch 1: 0.263753
2022-01-29 14:44:18 INFO     Valid average HITS10 at epoch 1: 0.408794
2022-01-29 14:44:18 INFO     Valid average MAE at epoch 1: 0.078448
2022-01-29 14:44:18 INFO     Valid average MSE at epoch 1: 0.016437
2022-01-29 14:44:18 INFO     Valid average RMSE at epoch 1: 0.126954
2022-01-29 15:00:10 INFO     Valid 1p MRR at epoch 10: 0.345336
2022-01-29 15:00:10 INFO     Valid 1p HITS1 at epoch 10: 0.235982
2022-01-29 15:00:10 INFO     Valid 1p HITS3 at epoch 10: 0.390492
2022-01-29 15:00:10 INFO     Valid 1p HITS10 at epoch 10: 0.561827
2022-01-29 15:00:10 INFO     Valid 1p num_queries at epoch 10: 20101.000000
2022-01-29 15:00:10 INFO     Valid 1ap MAE at epoch 10: 0.063814
2022-01-29 15:00:10 INFO     Valid 1ap MSE at epoch 10: 0.013939
2022-01-29 15:00:10 INFO     Valid 1ap RMSE at epoch 10: 0.118065
2022-01-29 15:00:10 INFO     Valid 1ap num_queries at epoch 10: 3000.000000
2022-01-29 15:00:10 INFO     Valid 2ap MAE at epoch 10: 0.046973
2022-01-29 15:00:10 INFO     Valid 2ap MSE at epoch 10: 0.005588
2022-01-29 15:00:10 INFO     Valid 2ap RMSE at epoch 10: 0.074751
2022-01-29 15:00:10 INFO     Valid 2ap num_queries at epoch 10: 100.000000
2022-01-29 15:00:10 INFO     Valid average MRR at epoch 10: 0.345336
2022-01-29 15:00:10 INFO     Valid average HITS1 at epoch 10: 0.235982
2022-01-29 15:00:10 INFO     Valid average HITS3 at epoch 10: 0.390492
2022-01-29 15:00:10 INFO     Valid average HITS10 at epoch 10: 0.561827
2022-01-29 15:00:10 INFO     Valid average MAE at epoch 10: 0.055394
2022-01-29 15:00:10 INFO     Valid average MSE at epoch 10: 0.009763
2022-01-29 15:00:10 INFO     Valid average RMSE at epoch 10: 0.096408
2022-01-29 15:17:39 INFO     Valid 1p MRR at epoch 20: 0.369313
2022-01-29 15:17:39 INFO     Valid 1p HITS1 at epoch 20: 0.257810
2022-01-29 15:17:39 INFO     Valid 1p HITS3 at epoch 20: 0.418885
2022-01-29 15:17:39 INFO     Valid 1p HITS10 at epoch 20: 0.590118
2022-01-29 15:17:39 INFO     Valid 1p num_queries at epoch 20: 20101.000000
2022-01-29 15:17:39 INFO     Valid 1ap MAE at epoch 20: 0.062315
2022-01-29 15:17:39 INFO     Valid 1ap MSE at epoch 20: 0.013387
2022-01-29 15:17:39 INFO     Valid 1ap RMSE at epoch 20: 0.115701
2022-01-29 15:17:39 INFO     Valid 1ap num_queries at epoch 20: 3000.000000
2022-01-29 15:17:39 INFO     Valid 2ap MAE at epoch 20: 0.043476
2022-01-29 15:17:39 INFO     Valid 2ap MSE at epoch 20: 0.005803
2022-01-29 15:17:39 INFO     Valid 2ap RMSE at epoch 20: 0.076179
2022-01-29 15:17:39 INFO     Valid 2ap num_queries at epoch 20: 100.000000
2022-01-29 15:17:39 INFO     Valid average MRR at epoch 20: 0.369313
2022-01-29 15:17:39 INFO     Valid average HITS1 at epoch 20: 0.257810
2022-01-29 15:17:39 INFO     Valid average HITS3 at epoch 20: 0.418885
2022-01-29 15:17:39 INFO     Valid average HITS10 at epoch 20: 0.590118
2022-01-29 15:17:39 INFO     Valid average MAE at epoch 20: 0.052895
2022-01-29 15:17:39 INFO     Valid average MSE at epoch 20: 0.009595
2022-01-29 15:17:39 INFO     Valid average RMSE at epoch 20: 0.095940
2022-01-29 15:35:10 INFO     Valid 1p MRR at epoch 30: 0.374720
2022-01-29 15:35:10 INFO     Valid 1p HITS1 at epoch 30: 0.261763
2022-01-29 15:35:10 INFO     Valid 1p HITS3 at epoch 30: 0.425789
2022-01-29 15:35:10 INFO     Valid 1p HITS10 at epoch 30: 0.599778
2022-01-29 15:35:10 INFO     Valid 1p num_queries at epoch 30: 20101.000000
2022-01-29 15:35:10 INFO     Valid 1ap MAE at epoch 30: 0.062646
2022-01-29 15:35:10 INFO     Valid 1ap MSE at epoch 30: 0.013267
2022-01-29 15:35:10 INFO     Valid 1ap RMSE at epoch 30: 0.115181
2022-01-29 15:35:10 INFO     Valid 1ap num_queries at epoch 30: 3000.000000
2022-01-29 15:35:10 INFO     Valid 2ap MAE at epoch 30: 0.044787
2022-01-29 15:35:10 INFO     Valid 2ap MSE at epoch 30: 0.005890
2022-01-29 15:35:10 INFO     Valid 2ap RMSE at epoch 30: 0.076749
2022-01-29 15:35:10 INFO     Valid 2ap num_queries at epoch 30: 100.000000
2022-01-29 15:35:10 INFO     Valid average MRR at epoch 30: 0.374720
2022-01-29 15:35:10 INFO     Valid average HITS1 at epoch 30: 0.261763
2022-01-29 15:35:10 INFO     Valid average HITS3 at epoch 30: 0.425789
2022-01-29 15:35:10 INFO     Valid average HITS10 at epoch 30: 0.599778
2022-01-29 15:35:10 INFO     Valid average MAE at epoch 30: 0.053716
2022-01-29 15:35:10 INFO     Valid average MSE at epoch 30: 0.009579
2022-01-29 15:35:10 INFO     Valid average RMSE at epoch 30: 0.095965
2022-01-29 15:52:33 INFO     Valid 1p MRR at epoch 40: 0.377146
2022-01-29 15:52:33 INFO     Valid 1p HITS1 at epoch 40: 0.264203
2022-01-29 15:52:33 INFO     Valid 1p HITS3 at epoch 40: 0.426057
2022-01-29 15:52:33 INFO     Valid 1p HITS10 at epoch 40: 0.600914
2022-01-29 15:52:33 INFO     Valid 1p num_queries at epoch 40: 20101.000000
2022-01-29 15:52:33 INFO     Valid 1ap MAE at epoch 40: 0.061921
2022-01-29 15:52:33 INFO     Valid 1ap MSE at epoch 40: 0.013368
2022-01-29 15:52:33 INFO     Valid 1ap RMSE at epoch 40: 0.115621
2022-01-29 15:52:33 INFO     Valid 1ap num_queries at epoch 40: 3000.000000
2022-01-29 15:52:33 INFO     Valid 2ap MAE at epoch 40: 0.045189
2022-01-29 15:52:33 INFO     Valid 2ap MSE at epoch 40: 0.006362
2022-01-29 15:52:33 INFO     Valid 2ap RMSE at epoch 40: 0.079764
2022-01-29 15:52:33 INFO     Valid 2ap num_queries at epoch 40: 100.000000
2022-01-29 15:52:33 INFO     Valid average MRR at epoch 40: 0.377146
2022-01-29 15:52:33 INFO     Valid average HITS1 at epoch 40: 0.264203
2022-01-29 15:52:33 INFO     Valid average HITS3 at epoch 40: 0.426057
2022-01-29 15:52:33 INFO     Valid average HITS10 at epoch 40: 0.600914
2022-01-29 15:52:33 INFO     Valid average MAE at epoch 40: 0.053555
2022-01-29 15:52:33 INFO     Valid average MSE at epoch 40: 0.009865
2022-01-29 15:52:33 INFO     Valid average RMSE at epoch 40: 0.097692
2022-01-29 16:10:00 INFO     Valid 1p MRR at epoch 50: 0.379940
2022-01-29 16:10:00 INFO     Valid 1p HITS1 at epoch 50: 0.265955
2022-01-29 16:10:00 INFO     Valid 1p HITS3 at epoch 50: 0.429555
2022-01-29 16:10:00 INFO     Valid 1p HITS10 at epoch 50: 0.608241
2022-01-29 16:10:00 INFO     Valid 1p num_queries at epoch 50: 20101.000000
2022-01-29 16:10:00 INFO     Valid 1ap MAE at epoch 50: 0.062170
2022-01-29 16:10:00 INFO     Valid 1ap MSE at epoch 50: 0.013494
2022-01-29 16:10:00 INFO     Valid 1ap RMSE at epoch 50: 0.116162
2022-01-29 16:10:00 INFO     Valid 1ap num_queries at epoch 50: 3000.000000
2022-01-29 16:10:00 INFO     Valid 2ap MAE at epoch 50: 0.043938
2022-01-29 16:10:00 INFO     Valid 2ap MSE at epoch 50: 0.006155
2022-01-29 16:10:00 INFO     Valid 2ap RMSE at epoch 50: 0.078453
2022-01-29 16:10:00 INFO     Valid 2ap num_queries at epoch 50: 100.000000
2022-01-29 16:10:00 INFO     Valid average MRR at epoch 50: 0.379940
2022-01-29 16:10:00 INFO     Valid average HITS1 at epoch 50: 0.265955
2022-01-29 16:10:00 INFO     Valid average HITS3 at epoch 50: 0.429555
2022-01-29 16:10:00 INFO     Valid average HITS10 at epoch 50: 0.608241
2022-01-29 16:10:00 INFO     Valid average MAE at epoch 50: 0.053054
2022-01-29 16:10:00 INFO     Valid average MSE at epoch 50: 0.009824
2022-01-29 16:10:00 INFO     Valid average RMSE at epoch 50: 0.097307
2022-01-29 16:27:27 INFO     Valid 1p MRR at epoch 60: 0.385106
2022-01-29 16:27:27 INFO     Valid 1p HITS1 at epoch 60: 0.272614
2022-01-29 16:27:27 INFO     Valid 1p HITS3 at epoch 60: 0.435283
2022-01-29 16:27:27 INFO     Valid 1p HITS10 at epoch 60: 0.611285
2022-01-29 16:27:27 INFO     Valid 1p num_queries at epoch 60: 20101.000000
2022-01-29 16:27:27 INFO     Valid 1ap MAE at epoch 60: 0.061926
2022-01-29 16:27:27 INFO     Valid 1ap MSE at epoch 60: 0.013360
2022-01-29 16:27:27 INFO     Valid 1ap RMSE at epoch 60: 0.115586
2022-01-29 16:27:27 INFO     Valid 1ap num_queries at epoch 60: 3000.000000
2022-01-29 16:27:27 INFO     Valid 2ap MAE at epoch 60: 0.043268
2022-01-29 16:27:27 INFO     Valid 2ap MSE at epoch 60: 0.005848
2022-01-29 16:27:27 INFO     Valid 2ap RMSE at epoch 60: 0.076469
2022-01-29 16:27:27 INFO     Valid 2ap num_queries at epoch 60: 100.000000
2022-01-29 16:27:27 INFO     Valid average MRR at epoch 60: 0.385106
2022-01-29 16:27:27 INFO     Valid average HITS1 at epoch 60: 0.272614
2022-01-29 16:27:27 INFO     Valid average HITS3 at epoch 60: 0.435283
2022-01-29 16:27:27 INFO     Valid average HITS10 at epoch 60: 0.611285
2022-01-29 16:27:27 INFO     Valid average MAE at epoch 60: 0.052597
2022-01-29 16:27:27 INFO     Valid average MSE at epoch 60: 0.009604
2022-01-29 16:27:27 INFO     Valid average RMSE at epoch 60: 0.096028
2022-01-29 16:44:50 INFO     Valid 1p MRR at epoch 70: 0.383104
2022-01-29 16:44:50 INFO     Valid 1p HITS1 at epoch 70: 0.269771
2022-01-29 16:44:50 INFO     Valid 1p HITS3 at epoch 70: 0.433388
2022-01-29 16:44:50 INFO     Valid 1p HITS10 at epoch 70: 0.611481
2022-01-29 16:44:50 INFO     Valid 1p num_queries at epoch 70: 20101.000000
2022-01-29 16:44:50 INFO     Valid 1ap MAE at epoch 70: 0.061589
2022-01-29 16:44:50 INFO     Valid 1ap MSE at epoch 70: 0.013475
2022-01-29 16:44:50 INFO     Valid 1ap RMSE at epoch 70: 0.116084
2022-01-29 16:44:50 INFO     Valid 1ap num_queries at epoch 70: 3000.000000
2022-01-29 16:44:50 INFO     Valid 2ap MAE at epoch 70: 0.042997
2022-01-29 16:44:50 INFO     Valid 2ap MSE at epoch 70: 0.005943
2022-01-29 16:44:50 INFO     Valid 2ap RMSE at epoch 70: 0.077092
2022-01-29 16:44:50 INFO     Valid 2ap num_queries at epoch 70: 100.000000
2022-01-29 16:44:50 INFO     Valid average MRR at epoch 70: 0.383104
2022-01-29 16:44:50 INFO     Valid average HITS1 at epoch 70: 0.269771
2022-01-29 16:44:50 INFO     Valid average HITS3 at epoch 70: 0.433388
2022-01-29 16:44:50 INFO     Valid average HITS10 at epoch 70: 0.611481
2022-01-29 16:44:50 INFO     Valid average MAE at epoch 70: 0.052293
2022-01-29 16:44:50 INFO     Valid average MSE at epoch 70: 0.009709
2022-01-29 16:44:50 INFO     Valid average RMSE at epoch 70: 0.096588
2022-01-29 17:02:10 INFO     Valid 1p MRR at epoch 80: 0.386267
2022-01-29 17:02:10 INFO     Valid 1p HITS1 at epoch 80: 0.274388
2022-01-29 17:02:10 INFO     Valid 1p HITS3 at epoch 80: 0.434016
2022-01-29 17:02:10 INFO     Valid 1p HITS10 at epoch 80: 0.612126
2022-01-29 17:02:10 INFO     Valid 1p num_queries at epoch 80: 20101.000000
2022-01-29 17:02:10 INFO     Valid 1ap MAE at epoch 80: 0.062346
2022-01-29 17:02:10 INFO     Valid 1ap MSE at epoch 80: 0.013913
2022-01-29 17:02:10 INFO     Valid 1ap RMSE at epoch 80: 0.117955
2022-01-29 17:02:10 INFO     Valid 1ap num_queries at epoch 80: 3000.000000
2022-01-29 17:02:10 INFO     Valid 2ap MAE at epoch 80: 0.044366
2022-01-29 17:02:10 INFO     Valid 2ap MSE at epoch 80: 0.006468
2022-01-29 17:02:10 INFO     Valid 2ap RMSE at epoch 80: 0.080423
2022-01-29 17:02:10 INFO     Valid 2ap num_queries at epoch 80: 100.000000
2022-01-29 17:02:10 INFO     Valid average MRR at epoch 80: 0.386267
2022-01-29 17:02:10 INFO     Valid average HITS1 at epoch 80: 0.274388
2022-01-29 17:02:10 INFO     Valid average HITS3 at epoch 80: 0.434016
2022-01-29 17:02:10 INFO     Valid average HITS10 at epoch 80: 0.612126
2022-01-29 17:02:10 INFO     Valid average MAE at epoch 80: 0.053356
2022-01-29 17:02:10 INFO     Valid average MSE at epoch 80: 0.010191
2022-01-29 17:02:10 INFO     Valid average RMSE at epoch 80: 0.099189
2022-01-29 17:19:34 INFO     Valid 1p MRR at epoch 90: 0.387118
2022-01-29 17:19:34 INFO     Valid 1p HITS1 at epoch 90: 0.275576
2022-01-29 17:19:34 INFO     Valid 1p HITS3 at epoch 90: 0.435050
2022-01-29 17:19:34 INFO     Valid 1p HITS10 at epoch 90: 0.611676
2022-01-29 17:19:34 INFO     Valid 1p num_queries at epoch 90: 20101.000000
2022-01-29 17:19:34 INFO     Valid 1ap MAE at epoch 90: 0.061272
2022-01-29 17:19:34 INFO     Valid 1ap MSE at epoch 90: 0.013499
2022-01-29 17:19:34 INFO     Valid 1ap RMSE at epoch 90: 0.116187
2022-01-29 17:19:34 INFO     Valid 1ap num_queries at epoch 90: 3000.000000
2022-01-29 17:19:34 INFO     Valid 2ap MAE at epoch 90: 0.043249
2022-01-29 17:19:34 INFO     Valid 2ap MSE at epoch 90: 0.006238
2022-01-29 17:19:34 INFO     Valid 2ap RMSE at epoch 90: 0.078982
2022-01-29 17:19:34 INFO     Valid 2ap num_queries at epoch 90: 100.000000
2022-01-29 17:19:34 INFO     Valid average MRR at epoch 90: 0.387118
2022-01-29 17:19:34 INFO     Valid average HITS1 at epoch 90: 0.275576
2022-01-29 17:19:34 INFO     Valid average HITS3 at epoch 90: 0.435050
2022-01-29 17:19:34 INFO     Valid average HITS10 at epoch 90: 0.611676
2022-01-29 17:19:34 INFO     Valid average MAE at epoch 90: 0.052261
2022-01-29 17:19:34 INFO     Valid average MSE at epoch 90: 0.009869
2022-01-29 17:19:34 INFO     Valid average RMSE at epoch 90: 0.097584
2022-01-29 17:36:32 INFO     Training finished!!
2022-01-29 17:36:33 INFO     valid: 1p: 20101
2022-01-29 17:36:33 INFO     valid: 1ap: 3000
2022-01-29 17:36:33 INFO     valid: 2ap: 100
2022-01-29 17:36:33 INFO     valid: 3ap: 100
