121
/architecture/architect/structure_count	0	2.0	79.0
/architecture/museum/established	1	1792.0	1969.0
/architecture/structure/construction_started	2	1446.0	1978.0
/architecture/structure/opened	3	1090.0	2003.0
/aviation/airport/number_of_runways	4	2.0	8.0
/award/award_category/date_discontinued	5	1955.0	2014.0
/award/award_category/date_established	6	1709.0	2013.0
/base/instantencore/topic/instantencore_id	7	5000842.0	5109686.0
/base/popstra/sww_base/heat	8	30.0	100.0
/base/popstra/sww_base/interest	9	40.0	100.0
/base/saturdaynightlive/snl_fiver_timer/number_of_appearances	10	5.0	14.0
/base/schemastaging/location_extra/elevation_max	11	39.0	925.0
/base/schemastaging/location_extra/elevation_min	12	0.0	188.0
/base/schemastaging/tennis_player_extra/doubles_grand_slams	13	8.0	15.0
/base/usnris/nris_listing/item_number	14	5000871.0	99000550.0
/base/usnris/nris_listing/significant_year	15	1758.5	1936.0
/biology/organism_classification/itis_tsn	16	18154.0	726821.0
/biology/organism_classification/ncbi_taxon_id	17	3435.0	33208.0
/book/publishing_company/isfdb_id	18	2714.5	27612.0
/business/defunct_company/ceased_operations	19	1820.0	2011.0
/business/industry/naics_2007	20	21.0	541711.0
/chemistry/chemical_compound/average_molar_mass	21	18.01528	1355.37
/chemistry/chemical_compound/boiling_point	22	99.98	633.0
/chemistry/chemical_compound/density	23	0.847	1.6943
/chemistry/chemical_compound/melting_point	24	-49.0	1084.62
/chemistry/chemical_compound/pubchem_id	25	231.0	5479203.0
/chemistry/chemical_element/atomic_number	26	11.0	34.0
/chemistry/chemical_element/boiling_point	27	280.5	2862.0
/chemistry/chemical_element/covalent_radius	28	107.0	203.0
/chemistry/chemical_element/discovery_date	29	-8999.0	1817.0
/chemistry/chemical_element/electronegativity	30	0.82	2.55
/chemistry/chemical_element/ionization_energy	31	4.3407	10.4867
/chemistry/chemical_element/melting_point	32	44.2	1538.0
/chemistry/chemical_element/van_der_waals_radius	33	139.0	280.0
/common/identity/sfiff_id	34	73.0	6100.0
/common/topic/alias	35	7.0	90210.0
/computer/programming_language/introduced	36	1987.0	1995.0
/education/school/nces_school_id	37	60483000471.0	360008701940.0
/fictional_universe/fictional_character/height	38	1.77	2.1
/fictional_universe/fictional_character/weight	39	76.0	95.0
/film/film/fandango_id	40	14133.0	133727.0
/film/film/initial_release_date	41	1935.0	2013.0
/film/film/netflix_id	42	206584.0	70235384.0
/film/film/rottentomatoes_id	43	300.0	50502011.0
/food/food/energy	44	67.0	2783.0
/food/food/usda_equivalent	45	1009.0	20097.0
/food/food/usda_id	46	1009.0	20097.0
/food/nutrient/usda_id	47	203.0	646.0
/geography/body_of_water/depth	48	6.096	10911.0
/geography/body_of_water/mean_depth	49	19.0	4280.0
/geography/body_of_water/surface_area	50	25744.0	165200000.0
/geography/river/basin_area	51	12935.0	2981076.2
/geography/river/discharge	52	65.8	16792.0
/geography/river/length	53	26.0	3767.0
/geography/river/source_elevation	54	110.0	2345.0
/government/us_president/presidency_number	55	1.0	44.0
/government/us_vice_president/vice_president_number	56	1.0	47.0
/location/country/calling_code	57	1.0	998.0
/location/country/iso_numeric	58	4.0	894.0
/location/dated_location/date_dissolved	59	-194.0	2003.0
/location/dated_location/date_founded	60	-2999.0	1994.0
/location/fr_department/code_insee	61	2.0	972.0
/location/hud_county_place/countyplace_id	62	10072.0	5183086160.0
/location/location/area	63	0.0040468564224	165250000.0
/location/location/area_land	64	121.4	243286.0
/location/location/gnis_feature_id	65	5060.0	1967435.0
/location/location/gns_ufi	66	116270.0	9031110.0
/location/location/mean_elevation	67	4.0	223.0
/location/statistical_region/hud_id	68	100399999.0	7212799999.0
/location/uk_statistical_location/ons_code	69	11.0	45.0
/location/us_cbsa/cbsa_id	70	12580.0	45300.0
/medicine/icd_9_cm_classification/code	71	1.0	586.0
/music/artist/active_end	72	1750.0	2014.0
/music/artist/active_start	73	1760.0	2010.0
/olympics/olympic_games/number_of_athletes	74	241.0	11099.0
/olympics/olympic_games/number_of_countries	75	12.0	204.0
/olympics/olympic_games/number_of_events	76	22.0	302.0
/organization/organization/date_founded	77	1088.0	2012.0
/people/person/date_of_birth	78	-383.0	1985.0
/people/person/height_meters	79	1.346	2.18
/people/person/quotationsbook_id	80	39.0	7928.0
/people/person/weight_kg	81	44.0	147.0
/royalty/royal_line/ruled_from	82	1003.0	1644.0
/royalty/royal_line/ruled_to	83	1485.0	1946.0
/sports/pro_athlete/career_end	84	1958.0	2003.0
/sports/pro_athlete/career_start	85	1958.0	2005.0
/sports/sports_league_draft/year	86	1995.0	2008.0
/sports/sports_team/founded	87	1739.0	2013.0
/tennis/tennis_player/year_turned_pro	88	1991.0	2003.0
/time/event/end_date	89	-200.0	1998.0
/time/event/start_date	90	-217.0	2009.0
/time/month/month_number	91	1.0	12.0
/time/month/number_of_days_in_month	92	28.5	31.0
/time/recurring_event/date_of_first_occurance	93	1933.0	2004.0
/time/time_zone/dst_offset_from_utc	94	-8.0	3.0
/time/time_zone/offset_from_uct	95	-9.0	8.0
/topic_server/population_number	96	0.0	5008096528.203704
/tv/tv_program/air_date_of_first_episode	97	1950.0	2009.0
/tv/tv_program/episode_running_time	98	11.0	720.0
/tv/tv_program/number_of_episodes	99	1.0	16116.0
/tv/tv_program/number_of_seasons	100	1.0	91.0
/tv/tv_program/thetvdb_id	101	70327.0	265226.0
/tv/tv_program/tvguide_id	102	100100.0	297616.0
/tv/tv_program/tvrage_id	103	26.0	27811.0
/tv/tv_series_episode/episode_number	104	1.0	20.0
/tv/tv_series_episode/season_number	105	0.0	2011.0
/tv/tv_series_season/number_of_episodes	106	15.0	15.0
/tv/tv_series_season/season_number	107	4.0	4.0
/tv/tv_series_season/thetvdb_id	108	500127.0	500127.0
/type/object/name	109	24.0	2046.0
/user/ameroamigo/default_domain/federal_reserve_bank/number	110	1.0	12.0
/user/aurametrix/default_domain/vitamin/daily_value	111	6e-06	550.0
/user/avh/default_domain/ellerdale_topic/ellerdale_id	112	0.0	8e-147
/user/brendan/default_domain/top_architectural_city/structure_count	113	1.0	204.0
/user/dylanrocks/national_football_league/nfl_teams_that_have_moved_cities/first_season	114	1961.0	2002.0
/user/robert/default_domain/rated_film/ew_rating	115	0.0	100.0
/user/robert/default_domain/rated_tv_program/ew_rating	116	23.0	92.0
/user/robert/us_congress/us_representative/district_number	117	8.0	15.0
/visual_art/art_period_movement/began_approximately	118	1420.0	1920.0
/visual_art/art_period_movement/ended_approximately	119	1600.0	1940.0
http://www/w3/org/2000/01/rdf-schema#label	120	24.0	2046.0
