256
+P112	0
-P112	1
+P118	2
-P118	3
+P131	4
-P131	5
+P1343	6
-P1343	7
+P1344	8
-P1344	9
+P1444	10
-P1444	11
+P1532	12
-P1532	13
+P155	14
-P155	15
+P1589	16
-P1589	17
+P159	18
-P159	19
+P17	20
-P17	21
+P1891	22
-P1891	23
+P19	24
-P19	25
+P1923	26
-P1923	27
+P205	28
-P205	29
+P206	30
-P206	31
+P2321	32
-P2321	33
+P2500	34
-P2500	35
+P2522	36
-P2522	37
+P2541	38
-P2541	39
+P27	40
-P27	41
+P276	42
-P276	43
+P2852	44
-P2852	45
+P2881	46
-P2881	47
+P2882	48
-P2882	49
+P30	50
-P30	51
+P3085	52
-P3085	53
+P3450	54
-P3450	55
+P3494	56
-P3494	57
+P3497	58
-P3497	59
+P35	60
-P35	61
+P361	62
-P361	63
+P3842	64
-P3842	65
+P421	66
-P421	67
+P4320	68
-P4320	69
+P4321	70
-P4321	71
+P4322	72
-P4322	73
+P4323	74
-P4323	75
+P4324	76
-P4324	77
+P463	78
-P463	79
+P47	80
-P47	81
+P495	82
-P495	83
+P530	84
-P530	85
+P54	86
-P54	87
+P6193	88
-P6193	89
+P664	90
-P664	91
+P706	92
-P706	93
+P1081_Q199	94
-P1081_Q199	95
+P1082_Q199	96
-P1082_Q199	97
+P1110_Q199	98
-P1110_Q199	99
+P1120_Q199	100
-P1120_Q199	101
+P1125_Q199	102
-P1125_Q199	103
+P1128_Q199	104
-P1128_Q199	105
+P1132_Q199	106
-P1132_Q199	107
+P1198_Q199	108
-P1198_Q199	109
+P1279_Q199	110
-P1279_Q199	111
+P1332_Latitude	112
-P1332_Latitude	113
+P1332_Longtiude	114
-P1332_Longtiude	115
+P1333_Latitude	116
-P1333_Latitude	117
+P1333_Longtiude	118
-P1333_Longtiude	119
+P1334_Latitude	120
-P1334_Latitude	121
+P1334_Longtiude	122
-P1334_Longtiude	123
+P1335_Latitude	124
-P1335_Latitude	125
+P1335_Longtiude	126
-P1335_Longtiude	127
+P1350_Q199	128
-P1350_Q199	129
+P1351_Q199	130
-P1351_Q199	131
+P1538_Q199	132
-P1538_Q199	133
+P1603_Q199	134
-P1603_Q199	135
+P2031	136
-P2031	137
+P2032	138
-P2032	139
+P2043_Q11573	140
-P2043_Q11573	141
+P2046_Q25343	142
-P2046_Q25343	143
+P2048_Q11573	144
-P2048_Q11573	145
+P2052_Q182429	146
-P2052_Q182429	147
+P2067_Q11570	148
-P2067_Q11570	149
+P2131_Q4917	150
-P2131_Q4917	151
+P2132_Q4917	152
-P2132_Q4917	153
+P2134_Q4917	154
-P2134_Q4917	155
+P2219_Q199	156
-P2219_Q199	157
+P2234_Q25517	158
-P2234_Q25517	159
+P2250_Q11574	160
-P2250_Q11574	161
+P2257_Q11574	162
-P2257_Q11574	163
+P2299_Q550207	164
-P2299_Q550207	165
+P2402_Q4916	166
-P2402_Q4916	167
+P2573_Q199	168
-P2573_Q199	169
+P2769_Q4916	170
-P2769_Q4916	171
+P2855_Q199	172
-P2855_Q199	173
+P2884_Q25250	174
-P2884_Q25250	175
+P2907_Q11574	176
-P2907_Q11574	177
+P2927_Q199	178
-P2927_Q199	179
+P2997_Q24564698	180
-P2997_Q24564698	181
+P2999_Q24564698	182
-P2999_Q24564698	183
+P3000_Q24564698	184
-P3000_Q24564698	185
+P3001_Q24564698	186
-P3001_Q24564698	187
+P3086_Q182429	188
-P3086_Q182429	189
+P3157_Q11573	190
-P3157_Q11573	191
+P3270_Q24564698	192
-P3270_Q24564698	193
+P3271_Q24564698	194
-P3271_Q24564698	195
+P3529_Q4917	196
-P3529_Q4917	197
+P3864_Q199	198
-P3864_Q199	199
+P3983_Q199	200
-P3983_Q199	201
+P4010_Q550207	202
-P4010_Q550207	203
+P4350_Q199	204
-P4350_Q199	205
+P4511_Q11573	206
-P4511_Q11573	207
+P4841_Q199	208
-P4841_Q199	209
+P5140_Latitude	210
-P5140_Latitude	211
+P5140_Longtiude	212
-P5140_Longtiude	213
+P5167_Q199	214
-P5167_Q199	215
+P569	216
-P569	217
+P570	218
-P570	219
+P571	220
-P571	221
+P576	222
-P576	223
+P577	224
-P577	225
+P580	226
-P580	227
+P582	228
-P582	229
+P585	230
-P585	231
+P5982_Q199	232
-P5982_Q199	233
+P625_Latitude	234
-P625_Latitude	235
+P625_Longtiude	236
-P625_Longtiude	237
+P6509_Q199	238
-P6509_Q199	239
+P6591_Q11579	240
-P6591_Q11579	241
+P6897_Q199	242
-P6897_Q199	243
+P7295	244
-P7295	245
+P7422_Q11579	246
-P7422_Q11579	247
+P8010_Q199	248
-P8010_Q199	249
+P8328_Q199	250
-P8328_Q199	251
+P8476_Q199	252
-P8476_Q199	253
+P8477_Q199	254
-P8477_Q199	255
