score,mrr,mae,mse,loss,rel_loss,attribute_loss,time_this_iter_s,should_checkpoint,done,timesteps_total,episodes_total,training_iteration,trial_id,experiment_id,date,timestamp,time_total_s,pid,hostname,node_ip,time_since_restore,timesteps_since_restore,iterations_since_restore
0.18333961958995615,0.28850675252758384,0.1051671329376277,0.02781269488735276,0.23506208260854086,0.5381611386934916,0.10516247401634853,99.09490704536438,True,False,,,1,2cd5b_00021,3ead76620c154ad19b1dcb176ad62998,2022-01-11_01-16-02,1641860162,99.09490704536438,74808,desktop-debian,192.168.2.105,99.09490704536438,0,1
0.23051069446249595,0.32940942503099946,0.0988987305685035,0.02567590350013053,0.24888033668200174,0.5988493859767914,0.09889358282089233,95.15628361701965,True,False,,,2,2cd5b_00021,3ead76620c154ad19b1dcb176ad62998,2022-01-11_01-17-38,1641860258,194.25119066238403,74808,desktop-debian,192.168.2.105,194.25119066238403,0,2
0.25213976023568774,0.34726866086875,0.09512890063306231,0.02420808404081393,0.2459030201037725,0.597690482934316,0.09513695538043976,98.06940722465515,True,False,,,3,2cd5b_00021,3ead76620c154ad19b1dcb176ad62998,2022-01-11_01-19-16,1641860356,292.3205978870392,74808,desktop-debian,192.168.2.105,292.3205978870392,0,3
0.2800756149093988,0.3726708485537482,0.09259523364434939,0.02316098798204727,0.22110756735006967,0.5209381878376007,0.09260872254769008,96.51549696922302,True,False,,,4,2cd5b_00021,3ead76620c154ad19b1dcb176ad62998,2022-01-11_01-20-52,1641860452,388.8360948562622,74808,desktop-debian,192.168.2.105,388.8360948562622,0,4
0.2947112895144574,0.38360148137453814,0.08889019186008075,0.02203400453171977,0.21765264372030893,0.5181011358896891,0.08888900776704152,96.29574155807495,True,False,,,5,2cd5b_00021,3ead76620c154ad19b1dcb176ad62998,2022-01-11_01-22-28,1641860548,485.13183641433716,74808,desktop-debian,192.168.2.105,485.13183641433716,0,5
0.3001062414415936,0.3898928492809877,0.08978660783939414,0.02283060995953861,0.23281177381674448,0.5665794312953949,0.08976847926775615,97.85785627365112,True,False,,,6,2cd5b_00021,3ead76620c154ad19b1dcb176ad62998,2022-01-11_01-24-06,1641860646,582.9896926879883,74808,desktop-debian,192.168.2.105,582.9896926879883,0,6
0.30975393821085506,0.3981817279386094,0.08842778972775436,0.022561105782707373,0.22911123931407928,0.5573463042577108,0.08843906472126643,97.03710770606995,True,False,,,7,2cd5b_00021,3ead76620c154ad19b1dcb176ad62998,2022-01-11_01-25-43,1641860743,680.0268003940582,74808,desktop-debian,192.168.2.105,680.0268003940582,0,7
0.3185594758388869,0.4055267388974534,0.08696726305856653,0.021709292002567316,0.20462961494922638,0.47918419043223065,0.08696335057417552,96.32422256469727,True,False,,,8,2cd5b_00021,3ead76620c154ad19b1dcb176ad62998,2022-01-11_01-27-20,1641860840,776.3510229587555,74808,desktop-debian,192.168.2.105,776.3510229587555,0,8
0.31619222306906664,0.40276624916203946,0.08657402609297284,0.02200763142236619,0.250758836666743,0.6338947614034017,0.08655771613121033,96.86390995979309,True,False,,,9,2cd5b_00021,3ead76620c154ad19b1dcb176ad62998,2022-01-11_01-28-56,1641860936,873.2149329185486,74808,desktop-debian,192.168.2.105,873.2149329185486,0,9
0.3175956189812394,0.4044768526823284,0.08688123370108902,0.021663318092361293,0.20892967283725739,0.49369580547014874,0.08688704172770183,96.25217342376709,True,False,,,10,2cd5b_00021,3ead76620c154ad19b1dcb176ad62998,2022-01-11_01-30-33,1641861033,969.4671063423157,74808,desktop-debian,192.168.2.105,969.4671063423157,0,10
