81
P1081_Q199	0	0.354	0.953
P1082_Q199	1	1000.0	4164252000.0
P1110_Q199	2	461165.0	13805496.0
P1120_Q199	3	425.0	570288.0
P1125_Q199	4	27.8	46.2
P1128_Q199	5	350.0	7000.0
P1132_Q199	6	8.0	17802.0
P1198_Q199	7	0.01	0.31
P1279_Q199	8	-0.049	16988.4
P1332_Latitude	9	-30.08	80.83
P1332_Longtiude	10	-175.63	176.98
P1333_Latitude	11	-56.53826	57.959666666667
P1333_Longtiude	12	-151.81087	174.64
P1334_Latitude	13	-55.22008886	70.387527777778
P1334_Longtiude	14	-178.25	178.55051479
P1335_Latitude	15	-49.01248498	65.63788906
P1335_Longtiude	16	-175.63333333333	176.9292
P1350_Q199	17	1.0	760.0
P1351_Q199	18	108.0	1494.0
P1538_Q199	19	4643151.0	23044097.0
P1603_Q199	20	7971.5	5716576.0
P2031	21	1961.0	1961.0
P2032	22	1961.0	1961.0
P2043_Q11573	23	3181500.0	39000000.0
P2046_Q25343	24	440297.0	161760000000000.0
P2048_Q11573	25	1.6	2.01
P2052_Q182429	26	9.299444444444445	11995.8
P2067_Q11570	27	49.0	92.0
P2131_Q4917	28	39731317.3044487	19390604000000.0
P2132_Q4917	29	237.0	168010.0
P2134_Q4917	30	8575237.0	1264140980383.0
P2219_Q199	31	-0.16903666666666664	0.104
P2234_Q25517	32	3839000000000000.0	6.6e+17
P2250_Q11574	33	1634668560.0	2693710000.0
P2257_Q11574	34	31536000.0	31536000.0
P2299_Q550207	35	727.486	128646.76
P2402_Q4916	36	234000000.0	235000000.0
P2573_Q199	37	510.0	143000000.0
P2769_Q4916	38	2900000.0	505800000.0
P2855_Q199	39	0.045	0.27
P2884_Q25250	40	100.0	385.0
P2907_Q11574	41	0.0	10800.0
P2927_Q199	42	0.0	0.279
P2997_Q24564698	43	16.0	21.0
P2999_Q24564698	44	16.0	21.0
P3000_Q24564698	45	12.0	25.0
P3001_Q24564698	46	58.0	67.0
P3086_Q182429	47	20.833333333333336	30.555555555555557
P3157_Q11573	48	36000.0	3662000.0
P3270_Q24564698	49	3.0	7.0
P3271_Q24564698	50	11.0	18.0
P3529_Q4917	51	21959.0	51489.0
P3864_Q199	52	0.96	21.2
P3983_Q199	53	1.0	4.0
P4010_Q550207	54	44021200.0	19485394000000.0
P4350_Q199	55	0.01	0.03775
P4511_Q11573	56	258.0	7686.0
P4841_Q199	57	1.234	7.599
P5140_Latitude	58	6.7	51.163333333333
P5140_Longtiude	59	-103.77155634167	20.9
P5167_Q199	60	66.5	778.0
P569	61	1961.0	1961.0
P570	62	1961.0	1961.0
P571	63	1961.0	1961.0
P576	64	1961.0	1961.0
P577	65	1961.0	1961.0
P580	66	1961.0	1961.0
P582	67	1961.0	1961.0
P585	68	1961.0	1961.0
P5982_Q199	69	86.0	628078.0
P625_Latitude	70	-41.2	65.0
P625_Longtiude	71	-174.810278	178.005556
P6509_Q199	72	0.0	107.5
P6591_Q11579	73	308.15	329.85
P6897_Q199	74	0.331	1.0
P7295	75	1961.0	1961.0
P7422_Q11579	76	216.15	293.15
P8010_Q199	77	2946.0	4430305.5
P8328_Q199	78	2.85	6.96
P8476_Q199	79	1.49	7.3774999999999995
P8477_Q199	80	1.324	9.411428571428571
