94
+P112	0
-P112	1
+P118	2
-P118	3
+P131	4
-P131	5
+P1343	6
-P1343	7
+P1344	8
-P1344	9
+P1444	10
-P1444	11
+P1532	12
-P1532	13
+P155	14
-P155	15
+P1589	16
-P1589	17
+P159	18
-P159	19
+P17	20
-P17	21
+P1891	22
-P1891	23
+P19	24
-P19	25
+P1923	26
-P1923	27
+P205	28
-P205	29
+P206	30
-P206	31
+P2321	32
-P2321	33
+P2500	34
-P2500	35
+P2522	36
-P2522	37
+P2541	38
-P2541	39
+P27	40
-P27	41
+P276	42
-P276	43
+P2852	44
-P2852	45
+P2881	46
-P2881	47
+P2882	48
-P2882	49
+P30	50
-P30	51
+P3085	52
-P3085	53
+P3450	54
-P3450	55
+P3494	56
-P3494	57
+P3497	58
-P3497	59
+P35	60
-P35	61
+P361	62
-P361	63
+P3842	64
-P3842	65
+P421	66
-P421	67
+P4320	68
-P4320	69
+P4321	70
-P4321	71
+P4322	72
-P4322	73
+P4323	74
-P4323	75
+P4324	76
-P4324	77
+P463	78
-P463	79
+P47	80
-P47	81
+P495	82
-P495	83
+P530	84
-P530	85
+P54	86
-P54	87
+P6193	88
-P6193	89
+P664	90
-P664	91
+P706	92
-P706	93
